[	
	{
		"slug": "pm_f1008_116_20251",
		"name": "Physical Experimentation & Statistical Thinking",
		"date": "2025-1",
		"url": "https://jsuarez314.gitlab.io/teaching/pm_f1008_116_20251",
		"id": "F1008",
		"type": "PhyMat",	
		"public": "True"
	},
	{
		"slug": "cmp_f1010b_117_20251",
		"name": "Thermodynamic Modeling in Bioengineering and Chemical Processes",
		"date": "2025-1",
		"url": "https://jsuarez314.gitlab.io/teaching/cmp_f1010b_117_20251",
		"id": "F1010B",
		"type": "Computational",	
		"public": "True"
	},
	{
		"slug": "pm_f1016b_209_20251",
		"name": "Modeling of Electrical Systems in Engineering",
		"date": "2025-1",
		"url": "https://jsuarez314.gitlab.io/teaching/pm_f1016b_209_20251",
		"id": "F1016B",
		"type": "PhyMat"		
	},
	{
		"slug": "pm_f1014b_303_20251",
		"name": "Computational Modeling of Electromagnetic Systems",
		"date": "2025-1",
		"url": "https://jsuarez314.gitlab.io/teaching/pm_f1014b_303_20251",
		"id": "F1014B",
		"type": "PhyMat"		
	},
	{
		"slug": "cmp_f1017b_310_20251",
		"name": "Modeling of Electromagnetic Systems in Engineering",
		"date": "2025-1",
		"url": "https://jsuarez314.gitlab.io/teaching/cmp_f1017b_310_20251",
		"id": "F1017B",
		"type": "Computational"
	}
]