<?xml version="1.0" encoding="UTF-8" standalone="no"?>
<svg
   viewBox="0 0 16 16"
   fill-rule="evenodd"
   clip-rule="evenodd"
   stroke-linejoin="round"
   stroke-miterlimit="1.414"
   version="1.1"
   id="svg4"
   sodipodi:docname="icon-gitlab.svg"
   inkscape:version="1.1.1 (3bf5ae0d25, 2021-09-20)"
   xmlns:inkscape="http://www.inkscape.org/namespaces/inkscape"
   xmlns:sodipodi="http://sodipodi.sourceforge.net/DTD/sodipodi-0.dtd"
   xmlns="http://www.w3.org/2000/svg"
   xmlns:svg="http://www.w3.org/2000/svg">
  <defs
     id="defs8" />
  <sodipodi:namedview
     id="namedview6"
     pagecolor="#ffffff"
     bordercolor="#666666"
     borderopacity="1.0"
     inkscape:pageshadow="2"
     inkscape:pageopacity="0.0"
     inkscape:pagecheckerboard="0"
     showgrid="false"
     inkscape:zoom="11.24196"
     inkscape:cx="15.077442"
     inkscape:cy="17.212301"
     inkscape:window-width="1366"
     inkscape:window-height="705"
     inkscape:window-x="-8"
     inkscape:window-y="-8"
     inkscape:window-maximized="1"
     inkscape:current-layer="svg4" />
  <path
     id="path935"
     style="fill:#000000;stroke:#000000;stroke-width:0;stroke-miterlimit:1.414;stroke-dasharray:none"
     d="M 8.09375 0.28710938 A 7.8957071 7.8957071 0 0 0 0.19921875 8.1835938 A 7.8957071 7.8957071 0 0 0 8.09375 16.080078 A 7.8957071 7.8957071 0 0 0 15.990234 8.1835938 A 7.8957071 7.8957071 0 0 0 8.09375 0.28710938 z M 4.2324219 2.6835938 C 4.3288276 2.6837937 4.4266156 2.7403705 4.4628906 2.8515625 L 5.8613281 7.15625 L 10.507812 7.15625 L 11.90625 2.8515625 C 11.9788 2.6291785 12.294264 2.6291785 12.365234 2.8515625 L 13.763672 7.15625 L 14.470703 9.3300781 C 14.535368 9.5288031 14.464056 9.7461196 14.296875 9.8691406 L 8.1855469 14.308594 L 2.0722656 9.8691406 C 1.9050746 9.7461196 1.8357206 9.5272261 1.9003906 9.3300781 L 2.6054688 7.15625 L 4.0058594 2.8496094 C 4.0413464 2.7392174 4.1360161 2.6833938 4.2324219 2.6835938 z " />
</svg>
