<?xml version="1.0" encoding="UTF-8" standalone="no"?>
<!-- Generator: Adobe Illustrator 21.0.0, SVG Export Plug-In . SVG Version: 6.00 Build 0)  -->

<svg
   version="1.1"
   id="Слой_1"
   x="0px"
   y="0px"
   viewBox="0 0 300 300"
   enable-background="new 0 0 400 400"
   xml:space="preserve"
   inkscape:version="1.1.1 (3bf5ae0d25, 2021-09-20)"
   sodipodi:docname="icon-youtube.svg"
   width="300"
   height="300"
   xmlns:inkscape="http://www.inkscape.org/namespaces/inkscape"
   xmlns:sodipodi="http://sodipodi.sourceforge.net/DTD/sodipodi-0.dtd"
   xmlns="http://www.w3.org/2000/svg"
   xmlns:svg="http://www.w3.org/2000/svg"
   xmlns:rdf="http://www.w3.org/1999/02/22-rdf-syntax-ns#"
   xmlns:cc="http://creativecommons.org/ns#"
   xmlns:dc="http://purl.org/dc/elements/1.1/"><metadata
     id="metadata17"><rdf:RDF><cc:Work
         rdf:about=""><dc:format>image/svg+xml</dc:format><dc:type
           rdf:resource="http://purl.org/dc/dcmitype/StillImage" /></cc:Work></rdf:RDF></metadata><defs
     id="defs15"><pattern
       y="0"
       x="0"
       height="6"
       width="6"
       patternUnits="userSpaceOnUse"
       id="EMFhbasepattern" /></defs><sodipodi:namedview
     pagecolor="#ffffff"
     bordercolor="#666666"
     borderopacity="1"
     objecttolerance="10"
     gridtolerance="10"
     guidetolerance="10"
     inkscape:pageopacity="0"
     inkscape:pageshadow="2"
     inkscape:window-width="1366"
     inkscape:window-height="705"
     id="namedview13"
     showgrid="false"
     inkscape:zoom="1.3994171"
     inkscape:cx="187.5781"
     inkscape:cy="114.69061"
     inkscape:window-x="-8"
     inkscape:window-y="-8"
     inkscape:window-maximized="1"
     inkscape:current-layer="Слой_1"
     fit-margin-top="0"
     fit-margin-left="0"
     fit-margin-right="0"
     fit-margin-bottom="0"
     inkscape:pagecheckerboard="0" /><path
     id="rect4"
     style="fill:#000000;fill-opacity:1;stroke-width:0;stroke-miterlimit:4;stroke-dasharray:none"
     d="M 150 0 C 66.9 0 0 66.9 0 150 C 0 233.1 66.9 300 150 300 C 233.1 300 300 233.1 300 150 C 300 66.9 233.1 0 150 0 z M 149.9375 79.222656 C 149.9375 79.222656 213.28168 79.222856 229.14844 83.595703 C 237.76923 85.844606 244.63977 92.715197 246.88867 101.33594 C 251.26156 117.20304 251.13672 150.1875 251.13672 150.1875 C 251.13672 150.1875 251.1366 183.04674 246.88867 198.78906 C 244.63977 207.53464 237.76923 214.28049 229.14844 216.6543 C 213.28168 220.77729 149.9375 220.77734 149.9375 220.77734 C 149.9375 220.77734 86.843592 220.77718 70.851562 216.5293 C 62.230834 214.15544 55.360154 207.28468 52.986328 198.66406 C 48.863375 183.0467 48.863281 150.0625 48.863281 150.0625 C 48.863281 150.0625 48.863375 117.20304 52.986328 101.33594 C 55.360154 92.715196 62.355776 85.719505 70.851562 83.345703 C 86.718652 79.222715 149.9375 79.222656 149.9375 79.222656 z M 129.82227 119.70312 L 129.82227 180.29688 L 182.42188 150.0625 L 129.82227 119.70312 z " /></svg>
