<?xml version="1.0" encoding="UTF-8" standalone="no"?>
<!-- Created with Inkscape (http://www.inkscape.org/) -->

<svg
   version="1.1"
   id="svg2"
   width="95"
   height="99"
   viewBox="0 0 95 99"
   sodipodi:docname="logo.svg"
   inkscape:version="1.1.1 (3bf5ae0d25, 2021-09-20)"
   inkscape:export-filename="D:\UDrive\Webpage\images\logo2.png"
   inkscape:export-xdpi="110.88"
   inkscape:export-ydpi="110.88"
   xmlns:inkscape="http://www.inkscape.org/namespaces/inkscape"
   xmlns:sodipodi="http://sodipodi.sourceforge.net/DTD/sodipodi-0.dtd"
   xmlns="http://www.w3.org/2000/svg"
   xmlns:svg="http://www.w3.org/2000/svg"
   xmlns:rdf="http://www.w3.org/1999/02/22-rdf-syntax-ns#"
   xmlns:cc="http://creativecommons.org/ns#"
   xmlns:dc="http://purl.org/dc/elements/1.1/">
  <metadata
     id="metadata8">
    <rdf:RDF>
      <cc:Work
         rdf:about="">
        <dc:format>image/svg+xml</dc:format>
        <dc:type
           rdf:resource="http://purl.org/dc/dcmitype/StillImage" />
      </cc:Work>
    </rdf:RDF>
  </metadata>
  <defs
     id="defs6" />
  <sodipodi:namedview
     pagecolor="#ffffff"
     bordercolor="#666666"
     borderopacity="1"
     objecttolerance="10"
     gridtolerance="10"
     guidetolerance="10"
     inkscape:pageopacity="0"
     inkscape:pageshadow="2"
     inkscape:window-width="1366"
     inkscape:window-height="705"
     id="namedview4"
     showgrid="false"
     inkscape:zoom="2.4117027"
     inkscape:cx="-16.37847"
     inkscape:cy="27.988525"
     inkscape:window-x="-8"
     inkscape:window-y="-8"
     inkscape:window-maximized="1"
     inkscape:current-layer="svg2"
     inkscape:pagecheckerboard="0" />
  <circle
     style="fill:#ffffff;stroke-width:10;stroke-miterlimit:4;stroke-dasharray:none"
     id="path11"
     cx="47.612286"
     cy="49.290257"
     r="48.03178"
     inkscape:export-xdpi="110.88"
     inkscape:export-ydpi="110.88" />
  <path
     style="fill:#000000;stroke-width:0.239889"
     d="m 61.349641,79.037932 c 0.121819,-0.465844 0.06013,-0.496923 -0.731514,-0.368446 -0.628127,0.101916 -0.939275,0.03811 -1.137764,-0.233338 -0.159315,-0.217873 -0.665121,-0.384742 -1.213323,-0.400281 -0.678073,-0.01924 -1.096855,-0.196852 -1.502436,-0.637269 -0.382568,-0.415442 -0.601834,-0.514784 -0.68594,-0.310771 -0.216875,0.526013 -0.803314,0.330716 -0.803314,-0.267511 0,-0.670074 -0.847719,-1.831516 -1.336797,-1.831516 -0.188332,0 -0.34242,-0.122997 -0.34242,-0.273327 0,-0.150329 -0.316834,-0.788245 -0.704066,-1.417581 -0.560786,-0.911386 -0.761673,-1.624666 -0.98712,-3.504911 -0.419616,-3.499629 -0.454193,-3.253386 0.491741,-3.502263 0.461787,-0.121499 0.87918,-0.259776 0.92755,-0.307276 0.04833,-0.04749 -0.248496,-0.633148 -0.65969,-1.301428 -0.411206,-0.668281 -0.747639,-1.321384 -0.747639,-1.451342 0,-0.129957 0.48578,-0.236286 1.079498,-0.236286 0.593727,0 1.0795,-0.107951 1.0795,-0.239887 0,-0.131939 -0.306153,-0.239886 -0.680336,-0.239886 -0.626942,0 -0.711658,-0.112678 -1.079498,-1.435724 l -0.399169,-1.435718 0.739868,-1.202436 c 0.877742,-1.426515 0.846022,-1.815898 -0.107586,-1.320634 -0.838379,0.435415 -1.112323,0.449468 -1.111145,0.05696 4.84e-4,-0.164926 0.495754,-0.503389 1.100572,-0.752144 l 1.099676,-0.452284 -0.135732,-1.106994 c -0.07465,-0.608838 -0.206827,-1.734724 -0.293718,-2.501956 -0.0869,-0.767238 -0.312834,-1.549828 -0.502098,-1.739085 -0.285585,-0.285592 -0.296987,-0.571106 -0.067,-1.678874 0.152396,-0.734122 0.429935,-1.393413 0.616745,-1.465097 0.466239,-0.178914 0.449854,-1.731001 -0.02018,-1.911365 -0.415569,-0.159472 -0.490376,-0.806419 -0.09325,-0.806419 0.172902,0 0.213169,-0.284721 0.11458,-0.81023 -0.126047,-0.671912 -0.07272,-0.83096 0.312394,-0.931664 0.35996,-0.09413 0.501542,-0.418811 0.629608,-1.443814 0.09087,-0.727301 0.09389,-1.647142 0.0066,-2.044095 -0.09273,-0.422152 -0.05311,-0.786867 0.09542,-0.878665 0.383376,-0.236937 0.304459,-1.628957 -0.127295,-2.245368 -0.209677,-0.299355 -0.325304,-0.690019 -0.256953,-0.868135 0.06835,-0.178122 -0.947542,-1.917546 -2.257538,-3.865377 -1.309995,-1.947839 -2.381815,-3.619825 -2.381815,-3.715531 0,-0.0957 -0.26987,-0.350836 -0.599718,-0.566962 -0.374666,-0.245487 -0.599719,-0.29109 -0.599719,-0.121529 0,0.169737 -0.224692,0.215031 -0.599726,0.120907 -0.345833,-0.0868 -0.599719,-0.047 -0.599719,0.09393 0,0.134452 -0.161924,0.244459 -0.359833,0.244459 -0.197908,0 -0.359832,-0.161923 -0.359832,-0.359832 0,-0.429155 0.08063,-0.423507 -1.42752,-0.100067 -0.66619,0.142876 -1.211251,0.358775 -1.211251,0.479779 0,0.339286 -0.718636,0.260386 -0.727295,-0.07985 -0.0048,-0.198066 -0.106833,-0.170558 -0.299856,0.08103 -0.16073,0.209492 -0.414638,0.425386 -0.564243,0.479774 -0.149606,0.05437 -0.834634,0.774778 -1.522289,1.600862 -1.114033,1.338283 -1.263638,1.651999 -1.37283,2.878655 -0.0674,0.757186 -0.0035,2.014045 0.141624,2.793021 0.147544,0.791067 0.173934,1.532385 0.05975,1.679218 -0.21219,0.27291 -1.080174,5.901648 -1.03819,6.732481 0.01311,0.259812 -0.08748,0.541205 -0.223573,0.625318 -0.168625,0.104219 -0.160112,0.477236 0.02671,1.171072 0.316791,1.176486 0.182338,1.437181 -0.516235,1.000914 -0.605652,-0.378235 -0.886393,-0.137081 -0.959648,0.824343 -0.05183,0.68025 0.640428,1.998052 1.058817,2.015585 0.34187,0.01433 0.178835,0.727199 -0.166317,0.727199 -0.582392,0 -1.07029,0.973256 -1.254394,2.502234 -0.09642,0.800758 -0.142035,1.563875 -0.101373,1.695813 0.04067,0.13194 0.114248,0.779636 0.163524,1.439331 0.04924,0.659691 0.154287,1.496305 0.233368,1.859134 0.107607,0.493681 0.0519,0.659689 -0.221314,0.659689 -0.254049,0 -0.387535,-0.293138 -0.438864,-0.963786 -0.08186,-1.069723 -0.42808,-1.292385 -0.790343,-0.508303 -0.130241,0.281895 -0.4271,0.512537 -0.659695,0.512537 -0.697963,0 -0.498677,0.33096 1.156114,1.919968 1.369555,1.315113 1.547375,1.582671 1.340578,2.0171 -0.2917,0.6128 -0.760586,3.090576 -0.760586,4.019256 0,1.007372 -0.526625,0.831816 -1.199444,-0.399842 -0.564725,-1.033775 -0.999185,-1.278041 -1.593473,-0.895908 -0.311087,0.200034 0.281701,1.975406 0.659581,1.975406 0.117826,0 0.214227,0.148131 0.214227,0.329171 0,0.19774 -0.377644,0.389564 -0.945789,0.480413 -1.378473,0.220427 -1.447065,0.58772 -0.295036,1.579922 0.993954,0.856051 1.275946,1.441796 0.701076,1.456249 -0.535677,0.01347 -1.196224,1.172998 -1.034741,1.816394 0.09875,0.393448 0.01553,0.728848 -0.245639,0.99002 -0.392029,0.392029 -0.374641,1.660826 0.04278,3.123274 0.114376,0.400696 0.05414,0.539749 -0.233742,0.539749 -0.213296,0 -0.391243,-0.134929 -0.395442,-0.299853 -0.0042,-0.164925 -0.157376,-0.497452 -0.340402,-0.738943 -0.305174,-0.402669 -0.404016,-0.297119 -1.191809,1.272605 -0.472475,0.941435 -0.859041,1.867681 -0.859041,2.058334 0,0.525173 -0.37037,0.41951 -1.206568,-0.344236 -0.416021,-0.379977 -1.007717,-0.825366 -1.314884,-0.989753 -0.492617,-0.263642 -0.631498,-0.225883 -1.177512,0.320131 -0.340464,0.340462 -0.619023,0.785852 -0.619023,0.989761 0,0.442361 -0.633547,0.499405 -0.787205,0.07086 -0.05915,-0.164933 -0.01752,-0.475392 0.09248,-0.689934 0.159127,-0.310356 -0.0085,-0.469676 -0.820074,-0.779635 -1.336028,-0.510237 -1.40265,-0.497273 -1.080324,0.210155 0.150287,0.329839 0.363875,0.599718 0.47463,0.599718 0.110764,0 0.201385,0.161923 0.201385,0.359833 0,0.576639 -0.617561,0.414895 -0.915901,-0.239885 -0.269902,-0.592378 -0.763318,-0.824979 -0.763318,-0.359833 0,0.13194 -0.161923,0.239885 -0.359832,0.239885 -0.46511,0 -0.459824,-0.451455 0.01136,-0.972127 0.335829,-0.371089 0.331817,-0.449569 -0.04211,-0.823498 -0.318392,-0.318394 -0.353688,-0.508802 -0.153665,-0.829092 0.190629,-0.305242 0.176164,-0.601498 -0.05444,-1.114488 -0.576906,-1.283485 -0.76757,-2.630197 -0.652875,-4.611452 0.07929,-1.369809 0.206067,-1.964544 0.418746,-1.964544 0.189752,0 0.305023,0.32333 0.305023,0.855605 0,0.470577 0.04163,0.897226 0.09249,0.948096 0.05087,0.05087 0.70313,-0.391926 1.449469,-0.98399 1.075342,-0.853073 1.524363,-1.065215 2.163515,-1.022174 0.574483,0.03867 1.23416,-0.20545 2.292785,-0.848531 1.691397,-1.027472 1.85529,-1.517812 0.884573,-2.646543 -0.542987,-0.631386 -0.565795,-0.737941 -0.235917,-1.102451 0.329009,-0.363555 0.314278,-0.468203 -0.148784,-1.05689 -0.51006,-0.648433 -0.510542,-0.660505 -0.06365,-1.593546 0.247667,-0.517088 0.518851,-0.941397 0.60263,-0.942913 0.08378,-0.0012 0.328351,-0.271395 0.543489,-0.599737 0.310237,-0.473484 0.333268,-0.689693 0.11132,-1.045085 -0.23599,-0.377886 -0.04863,-0.868086 1.195704,-3.128523 0.909787,-1.652689 1.475544,-2.96431 1.475544,-3.420828 0,-0.616884 0.07832,-0.719919 0.469474,-0.617633 0.367124,0.096 0.527732,-0.05377 0.736721,-0.686998 0.289017,-0.87573 0.164968,-1.29892 -0.380744,-1.29892 -0.19012,0 -0.345677,-0.161926 -0.345677,-0.359834 0,-0.237947 0.237996,-0.359833 0.702646,-0.359833 0.643758,0 0.734225,-0.108637 1.079498,-1.296336 0.470904,-1.619862 0.47335,-1.582319 -0.102924,-1.582319 -0.749245,0 -0.577938,-0.481889 0.746044,-2.09855 0.992903,-1.212385 1.19692,-1.611973 1.073693,-2.102929 -0.08367,-0.333376 -0.03987,-0.815856 0.0973,-1.072181 0.403086,-0.753173 -0.170342,-3.849107 -0.822707,-4.441818 -0.290437,-0.263878 -0.887415,-1.451323 -1.326623,-2.638769 -0.465991,-1.259874 -1.043665,-2.370687 -1.387113,-2.667318 -0.799065,-0.690115 -2.408634,-1.53073 -2.930977,-1.53073 -0.618472,0 -2.479623,0.689929 -2.663431,0.987339 -0.106556,0.172412 -0.515371,0.13177 -1.277588,-0.127009 -1.254369,-0.425869 -3.023228,-0.508169 -3.023228,-0.140663 0,0.393763 -0.656208,0.271491 -0.818942,-0.152602 -0.13725,-0.357658 -0.192742,-0.354359 -0.62539,0.03715 -0.261124,0.236316 -0.474771,0.565868 -0.474771,0.732329 0,0.166462 -0.107198,0.338644 -0.238231,0.382628 -0.131022,0.04399 -0.371257,0.916572 -0.533859,1.939096 -0.197739,1.24355 -0.401731,1.859134 -0.61608,1.859134 -0.242086,0 -0.282281,-0.254538 -0.164353,-1.040909 0.118019,-0.787013 0.06309,-1.133917 -0.225193,-1.422197 -0.439958,-0.439958 -0.491813,-0.818508 -0.1287,-0.939542 0.233777,-0.07793 0.770675,-1.891155 0.608104,-2.053725 -0.03981,-0.03982 -0.228333,-0.01251 -0.418981,0.06066 -0.384205,0.147436 -0.982927,4.029421 -0.755559,4.898893 0.09184,0.351198 0.01625,0.496821 -0.257891,0.496821 -0.463889,0 -0.484461,-0.468487 -0.133872,-3.048778 0.398608,-2.933787 0.403961,-2.948432 1.077547,-2.948432 0.3624,0 0.656747,-0.167368 0.738286,-0.419802 0.2779,-0.860359 0.943976,-2.068891 1.408609,-2.555799 0.263878,-0.27653 0.656916,-0.772651 0.873421,-1.1025 0.391369,-0.596268 0.397908,-0.597235 1.136332,-0.168207 l 0.742691,0.431517 0.659315,-1.344311 c 0.556991,-1.135693 0.734311,-1.318448 1.142603,-1.177653 0.265811,0.09166 0.825752,0.15984 1.24431,0.151514 0.434424,-0.0086 0.815064,0.125717 0.886972,0.313094 0.06927,0.18054 0.528258,0.40372 1.019963,0.495966 0.754333,0.141509 0.962441,0.0832 1.331994,-0.373173 0.240897,-0.29749 0.437989,-0.798806 0.437989,-1.114033 0,-0.362352 0.139352,-0.573148 0.378894,-0.573148 0.29619,0 0.34439,0.157079 0.220825,0.719665 -0.195354,0.889445 -0.115783,0.89104 2.08945,0.04188 l 1.760171,-0.677779 1.433627,0.473068 c 0.788492,0.260186 1.519952,0.61916 1.625458,0.797724 0.27549,0.466228 0.572809,0.406252 1.502909,-0.303168 0.510458,-0.389346 1.005547,-0.58012 1.303379,-0.502235 0.264144,0.06907 0.480257,0.02774 0.480257,-0.09184 0,-0.119583 -0.107951,-0.217429 -0.239887,-0.217429 -0.131938,0 -0.239887,-0.215894 -0.239887,-0.479773 0,-0.746044 0.330278,-0.5747 1.184161,0.61431 0.432144,0.601756 0.822307,1.057506 0.867021,1.012791 0.04471,-0.04471 -0.0081,-0.477676 -0.11736,-0.962137 -0.109269,-0.484455 -0.150771,-0.928728 -0.09224,-0.987265 0.05854,-0.05854 0.666657,0.04272 1.351389,0.225035 1.606547,0.42773 1.929169,0.423568 1.757923,-0.02266 -0.09553,-0.248954 0.01607,-0.359831 0.362147,-0.359831 0.373965,0 0.47004,0.11545 0.380616,0.457388 -0.101263,0.38725 0.103976,0.513703 1.338477,0.824677 1.62466,0.409254 1.842089,0.362568 1.8474,-0.396645 0.0068,-0.974826 0.317456,-1.178498 1.521981,-0.997869 0.742093,0.111288 1.113115,0.284135 1.113115,0.518579 0,0.268162 -0.185099,0.315364 -0.779636,0.198814 l -0.779641,-0.152837 0.566084,0.454537 c 0.444502,0.356914 1.268853,0.513316 3.838214,0.728208 l 3.272122,0.273677 0.7673,-0.817335 0.767298,-0.817331 2.984694,0.618474 c 3.308119,0.685487 3.850158,0.642422 3.616803,-0.287351 -0.177989,-0.709135 0.232914,-0.812405 0.88487,-0.222395 0.375867,0.340161 0.950059,0.356745 5.176485,0.149532 3.462976,-0.169777 4.910364,-0.159676 5.330599,0.03722 0.548862,0.257148 0.58115,0.397865 0.664941,2.898129 0.05802,1.733007 0.18839,2.690347 0.382685,2.81137 0.232083,0.14456 0.230148,0.287506 -0.0094,0.673505 -0.168302,0.271528 -0.236922,0.756092 -0.153914,1.086816 0.110542,0.440429 0.05387,0.596824 -0.216051,0.596824 -0.201222,0 -0.420302,-0.134935 -0.486848,-0.299862 -0.06651,-0.16492 -0.129514,-0.003 -0.139931,0.359833 -0.01041,0.362829 -0.12689,0.659696 -0.25883,0.659696 -0.131939,0 -0.239885,0.161924 -0.239885,0.359831 0,0.479158 -0.475138,0.457885 -0.837358,-0.03746 -0.243112,-0.33247 -0.462769,-0.359453 -1.34583,-0.165309 -1.180339,0.259499 -3.764926,0.249591 -4.953495,-0.01897 -0.428799,-0.09689 -0.779612,-0.08664 -0.779582,0.02278 3e-5,0.109435 -1.331859,0.161368 -2.959753,0.115403 l -2.959815,-0.08357 -0.783108,0.988758 c -0.572798,0.723218 -0.744981,1.140682 -0.641136,1.554438 0.07809,0.311124 0.02345,0.905648 -0.12139,1.321165 -0.196235,0.562927 -0.189717,0.933296 0.02562,1.453083 0.250472,0.604697 0.22613,0.765033 -0.182768,1.203934 -0.259449,0.278481 -0.670008,0.946055 -0.912365,1.483495 -0.438389,0.97218 -0.437935,0.979357 0.08887,1.405933 0.562074,0.45514 0.682183,0.859682 0.294395,0.991566 -0.280149,0.09528 -1.436492,3.825587 -1.530616,4.937705 -0.04393,0.518573 0.03987,0.779635 0.250152,0.779635 0.173874,0 0.316139,0.161924 0.316139,0.359833 0,0.197908 -0.176437,0.359833 -0.392071,0.359833 -0.336929,0 -0.375168,0.236141 -0.271915,1.679217 0.06608,0.923568 0.03956,1.679217 -0.0589,1.679217 -0.09847,0 -0.639806,0.610274 -1.202954,1.356167 -1.256786,1.664603 -1.174094,1.864693 1.168788,2.828044 0.944128,0.388205 1.716592,0.846995 1.716592,1.019529 0,0.172527 -0.110011,0.313692 -0.244461,0.313692 -0.140972,0 -0.180738,0.253885 -0.09393,0.599719 0.08638,0.344197 0.04694,0.599725 -0.09258,0.599725 -0.379618,0 -0.116381,1.780562 0.43742,2.958715 l 0.497477,1.05834 -0.731738,0.731731 c -0.765877,0.765885 -0.893263,1.120273 -0.491844,1.368365 0.13194,0.08154 0.239886,0.03395 0.239886,-0.105792 0,-0.139721 0.174516,-0.254042 0.387813,-0.254042 0.269707,0 0.349597,0.146106 0.262343,0.479772 -0.069,0.263878 -0.03486,0.479781 0.07592,0.479781 0.110756,0 0.199116,0.296859 0.196349,0.659695 -0.003,0.362829 0.201425,1.246805 0.453752,1.964386 0.426932,1.214137 0.587877,1.38481 2.318678,2.458858 1.022949,0.634786 1.959452,1.154156 2.081126,1.154156 0.121673,0 0.221217,0.20435 0.221217,0.454107 0,0.495561 0.536262,0.818037 0.870352,0.523377 0.115034,-0.101451 1.443554,-0.437699 2.952267,-0.74721 2.242953,-0.460137 2.891097,-0.692671 3.554683,-1.27531 1.041726,-0.914638 2.094344,-3.005847 2.467347,-4.901774 0.188626,-0.958767 0.410217,-1.48973 0.621712,-1.48973 0.39176,0 0.419819,0.340903 0.08029,0.975326 -0.191267,0.357386 -0.170141,0.464005 0.09199,0.464005 0.187163,0 0.396751,-0.215901 0.46576,-0.479774 0.14211,-0.543435 0.890051,-0.661025 0.890051,-0.139939 0,0.186914 -0.09641,0.375826 -0.214241,0.41981 -0.313129,0.116872 -1.920583,6.357701 -1.777999,6.902941 0.09786,0.374202 -0.0402,0.493126 -0.72044,0.620745 -0.584527,0.109656 -0.882994,0.315802 -0.977391,0.67506 -0.07472,0.284457 -0.03066,0.553173 0.09786,0.597158 0.374259,0.128018 0.269435,0.759643 -0.126062,0.759643 -0.197908,0 -0.359841,0.208626 -0.359841,0.463611 0,0.254985 -0.213761,0.53146 -0.475035,0.614383 -0.437058,0.138717 -1.444068,1.96755 -1.444068,2.622575 0,0.154641 -0.377824,0.417774 -0.839612,0.584764 -0.461779,0.166982 -0.839605,0.394327 -0.839605,0.505217 0,0.110889 -0.647697,0.142884 -1.439331,0.07115 -1.226776,-0.111239 -1.43933,-0.07246 -1.43933,0.262633 0,0.216241 -0.161924,0.393157 -0.359834,0.393157 -0.197908,0 -0.359833,-0.107951 -0.359833,-0.239885 0,-0.268229 -1.462984,-0.31912 -2.60537,-0.09067 -0.410432,0.08208 -1.023213,0.405932 -1.361731,0.719665 -0.338517,0.313734 -0.717883,0.570413 -0.843019,0.570413 -0.125142,0 -0.227531,0.107951 -0.227531,0.239895 0,0.131939 -0.174515,0.239885 -0.387812,0.239885 -0.277067,0 -0.349816,-0.14528 -0.254768,-0.508746 z m -32.181098,-1.653571 0.375589,-0.603049 -0.927972,0.08851 c -0.51038,0.04869 -0.927966,0.171943 -0.927966,0.273926 0,0.150433 1.048842,0.993073 1.092132,0.877429 0.007,-0.01859 0.181645,-0.305129 0.388217,-0.636799 z m 32.769234,0.137722 c 0.297664,-0.297654 -0.6311,-0.895137 -1.591774,-1.023991 -0.812334,-0.108959 -0.992553,-0.06208 -0.992553,0.258284 0,0.215279 0.107951,0.391421 0.239887,0.391421 0.131939,0 0.239887,0.176142 0.239887,0.391422 0,0.319497 0.179947,0.367276 0.979369,0.260055 0.538649,-0.07227 1.044981,-0.196982 1.125184,-0.277191 z m -3.20611,-0.494234 c -0.466747,-0.712344 -1.057434,-0.788673 -1.057434,-0.136628 0,0.418027 0.165259,0.509962 1.264943,0.703692 0.101993,0.01793 0.0086,-0.237216 -0.207509,-0.567064 z m -33.502325,-0.03123 c 0.713628,-0.191248 0.681355,-0.373551 -0.178732,-1.009432 -0.679947,-0.502708 -0.750714,-0.510086 -1.319385,-0.137469 -0.765159,0.501349 -0.755426,0.664639 0.0588,0.986383 0.846843,0.334633 0.806443,0.330122 1.439329,0.160518 z m 41.409401,-0.09601 c -0.163693,-0.16369 -0.443288,-0.168822 -0.827618,-0.01519 -0.545375,0.217987 -0.530446,0.232912 0.247202,0.247196 0.568067,0.01052 0.750086,-0.06236 0.580416,-0.231996 z m -1.590718,-0.772322 c 0.657091,-0.682115 0.711093,-0.833637 0.431705,-1.211353 -0.299844,-0.40537 -0.348046,-0.390731 -0.789912,0.239892 -0.258816,0.369384 -0.597636,0.914492 -0.75292,1.211355 -0.436913,0.835244 0.209968,0.695587 1.111127,-0.239894 z m 5.865851,0.359831 c 0.702936,-0.410111 1.800752,-2.131603 1.531231,-2.401124 -0.325443,-0.325443 -3.012075,1.303091 -3.014715,1.827419 -0.0012,0.224752 -0.181788,0.280645 -0.582295,0.180124 -0.723199,-0.181511 -1.338446,0.03878 -1.338446,0.479223 0,0.50733 2.495496,0.444551 3.404225,-0.08567 z M 29.075942,76.292513 c 0.243257,-0.07549 0.230975,-0.245065 -0.05824,-0.804391 -0.498991,-0.964944 -0.687064,-1.041366 -1.815241,-0.737576 -0.89473,0.240926 -1.014194,0.216681 -1.424867,-0.289126 l -0.44826,-0.552093 -1.686242,0.846435 c -1.170801,0.587701 -1.629597,0.938099 -1.50092,1.146302 0.136452,0.220789 0.426437,0.108262 1.099515,-0.426633 0.932961,-0.741421 1.465098,-0.906155 1.607858,-0.497735 0.04399,0.12582 0.511764,0.552742 1.039513,0.948711 0.80663,0.605199 1.112481,0.699361 1.919111,0.590839 0.527749,-0.07096 1.098262,-0.172123 1.267799,-0.224733 z m 34.895359,-1.025115 c 0.494767,-0.768048 0.89958,-1.52275 0.89958,-1.677121 0,-0.457311 -1.16039,-0.319722 -1.679223,0.199104 -0.263873,0.263879 -0.634912,0.479774 -0.824525,0.479774 -0.260731,0 -0.314206,0.219241 -0.219436,0.899581 0.274609,1.971296 0.605725,1.989214 1.823604,0.09866 z m -6.871122,0.54141 c -0.08008,-0.208692 -0.14561,-0.51267 -0.14561,-0.675488 0,-0.162825 -0.447445,-0.547513 -0.994317,-0.854879 l -0.994317,-0.558836 0.172492,0.694581 c 0.09486,0.382018 0.399201,0.937463 0.676297,1.234331 0.592096,0.634326 1.511344,0.748962 1.285455,0.160291 z m 4.652154,-0.190898 c 0,-0.313688 -0.135969,-0.683188 -0.302152,-0.821107 -0.321801,-0.26707 -1.889064,-0.0557 -1.868734,0.251993 0.0065,0.09895 0.0119,0.272246 0.0119,0.385099 0,0.196044 1.228595,0.678381 1.859127,0.729878 0.164928,0.01349 0.299864,-0.232168 0.299864,-0.545863 z m -3.511574,-0.02934 c -0.07595,-0.197905 -0.234479,-0.35983 -0.352304,-0.35983 -0.11782,0 -0.214222,0.161925 -0.214222,0.35983 0,0.197909 0.158535,0.359833 0.352305,0.359833 0.214596,0 0.298328,-0.140638 0.214221,-0.359833 z m 8.440071,-0.563309 c -0.378876,-0.370931 -0.38507,-0.352359 -0.09689,0.290655 0.169313,0.377798 0.351441,0.55611 0.404729,0.396243 0.05328,-0.159857 -0.08525,-0.468961 -0.307844,-0.686898 z M 29.752232,74.813905 c -0.243849,-0.243849 -0.445051,0.123282 -0.244977,0.447008 0.151139,0.24455 0.20764,0.244729 0.288902,6.05e-4 0.05552,-0.166674 0.03577,-0.368255 -0.04393,-0.44797 z m -8.150804,-1.415587 c -0.680502,-1.30805 -0.842885,-0.870122 -0.237958,0.64174 0.246333,0.615644 0.476474,0.895744 0.618937,0.75328 0.142458,-0.142457 6.05e-4,-0.661181 -0.380979,-1.39502 z m 9.049227,1.238335 c 0.07433,-0.193686 0.0319,-0.415954 -0.09428,-0.493935 -0.12618,-0.07798 -0.229415,0.08049 -0.229415,0.352147 0,0.579226 0.133407,0.637662 0.323691,0.141788 z m 37.917166,-0.625808 c 0.341576,-0.405942 0.621047,-0.837738 0.621047,-0.959557 0,-0.121814 -0.81922,-0.221478 -1.820485,-0.221478 h -1.82049 l 0.65192,0.779636 c 0.581273,0.695148 1.114854,1.072266 1.588374,1.122605 0.08722,0.0093 0.438061,-0.315268 0.779634,-0.721206 z m -44.71057,-0.588414 c 1.070543,-1.045357 1.069968,-2.065525 -0.0012,-2.509302 -0.681845,-0.282431 -2.304257,-0.119185 -2.535595,0.255118 -0.142809,0.231078 1.248702,3.100889 1.503554,3.100889 0.0915,0 0.55655,-0.381016 1.033454,-0.846705 z m 3.796276,0.633322 c 0.267872,-0.169735 0.252441,-0.317027 -0.08757,-0.835938 -0.490455,-0.748526 -0.634883,-0.771424 -1.165762,-0.18481 -0.759003,0.838694 0.247263,1.658235 1.253324,1.020748 z m 44.701438,-2.506099 c -0.08477,-0.326578 0.003,-0.422461 0.338856,-0.370646 0.712138,0.109811 1.457939,-0.42836 1.748437,-1.261693 0.322046,-0.923816 0.263689,-1.004914 -0.511075,-0.71035 -0.559541,0.212736 -3.307177,3.087579 -3.516305,3.679093 -0.05136,0.145268 -0.375202,0.522712 -0.719665,0.838773 -0.344457,0.316053 0.138797,0.05504 1.073909,-0.579987 1.285207,-0.872818 1.672281,-1.26217 1.585843,-1.59519 z m -15.400396,1.909243 c 0,-0.717126 -0.527793,-1.169151 -1.246214,-1.067305 -0.762014,0.108017 -0.692176,0.594016 0.166714,1.160144 0.928721,0.612146 1.0795,0.599181 1.0795,-0.09284 z m 3.225515,0.29192 1.38643,-0.278439 -0.566786,-0.435893 c -0.37925,-0.291676 -0.983482,-0.437661 -1.826194,-0.441232 -1.054817,-0.0042 -1.259415,0.06481 -1.259415,0.426466 0,0.421103 0.423519,1.007529 0.727635,1.007529 0.08355,0 0.775793,-0.125293 1.53833,-0.278431 z m -6.104177,-0.263583 c 0,-0.166172 -0.221129,-0.440224 -0.491392,-0.609006 -0.479852,-0.299675 -0.482015,-0.292576 -0.09235,0.302123 0.445402,0.679765 0.583746,0.752496 0.583746,0.306883 z M 30.044441,72.75328 c 0.09971,-0.866992 -0.345018,-1.434625 -0.882134,-1.125905 -1.127855,0.648264 -1.133765,0.66326 -0.518843,1.31782 0.72413,0.770797 1.299313,0.692 1.400977,-0.191915 z m 1.24208,0.30226 c 0,-0.271665 -0.103234,-0.430133 -0.229417,-0.352153 -0.126174,0.07799 -0.168599,0.300256 -0.09427,0.493934 0.190283,0.495882 0.32369,0.437445 0.32369,-0.141781 z m -5.037657,-0.764252 c 0,-0.133819 -0.159109,-0.107841 -0.359833,0.05873 -0.197909,0.164251 -0.359833,0.406584 -0.359833,0.538524 0,0.133818 0.159109,0.10784 0.359833,-0.05873 0.197909,-0.164251 0.359833,-0.40659 0.359833,-0.538524 z m 47.497883,0.05873 c 0,-0.131938 -0.114321,-0.239886 -0.254048,-0.239886 -0.139727,0 -0.18733,0.107951 -0.105781,0.239886 0.08153,0.13194 0.195861,0.239887 0.254042,0.239887 0.05819,0 0.105792,-0.107951 0.105792,-0.239887 z M 31.046629,71.990177 c 0.172135,-0.207405 0.195449,-0.359831 0.05504,-0.359831 -0.133975,0 -0.30573,0.161924 -0.381674,0.359831 -0.07595,0.19791 -0.10072,0.359833 -0.05504,0.359833 0.04568,0 0.217428,-0.161923 0.381674,-0.359833 z m 22.532296,-1.011676 c -0.162624,-0.492752 -0.505037,-1.222355 -0.760929,-1.621339 l -0.465255,-0.725416 0.130507,1.43933 c 0.10051,1.108481 0.255565,1.540718 0.674571,1.880424 0.676001,0.548075 0.8162,0.224143 0.421106,-0.972999 z m 14.358969,0.771792 c -1.052033,-0.71488 -1.421604,-0.745276 -1.950859,-0.160449 -0.556377,0.614781 -0.292751,0.760168 1.378394,0.760168 h 1.455034 z m 3.252747,-0.77665 c 0.72746,-0.757003 1.300631,-1.398399 1.273716,-1.425314 -0.09181,-0.09181 -4.308302,0.899733 -4.65778,1.095314 -0.263098,0.147238 -0.06332,0.375669 0.816865,0.933949 0.640833,0.406469 1.183012,0.74655 1.204845,0.755728 0.02181,0.0092 0.634894,-0.602673 1.362354,-1.359677 z m -45.661443,0.896591 c 0,-0.131938 -0.107951,-0.239887 -0.239887,-0.239887 -0.131939,0 -0.239885,0.107951 -0.239885,0.239887 0,0.131939 0.107951,0.239893 0.239885,0.239893 0.13194,0 0.239887,-0.107951 0.239887,-0.239893 z m 33.57656,-0.254465 c -0.298926,-0.558557 -0.792673,-0.507288 -0.909369,0.09443 -0.05643,0.290921 0.09299,0.399926 0.548189,0.399926 0.557566,0 0.596922,-0.05389 0.36118,-0.494356 z m 2.637513,-0.215563 c -0.765631,-0.654425 -2.389821,-1.033068 -2.389821,-0.55713 0,0.509437 1.343685,1.267051 2.247219,1.267051 h 0.973151 z m 2.62567,0.376792 c 0.194707,-0.234611 0.209691,-0.63032 0.05069,-1.338066 -0.124189,-0.552715 -0.262369,-1.03645 -0.307072,-1.074966 -0.260416,-0.224408 -3.536556,-0.363947 -3.665009,-0.156106 -0.161726,0.261672 2.896376,2.902267 3.361154,2.902267 0.156081,0 0.408189,-0.149908 0.560253,-0.333129 z M 28.882896,70.80999 c -0.138487,-0.138494 -0.408867,-0.05637 -0.709255,0.215509 -0.716083,0.648046 -0.589842,0.882339 0.223815,0.415362 0.438877,-0.251879 0.623934,-0.492382 0.48544,-0.630871 z m 25.983303,0.04622 c -0.599568,-0.662517 -0.811101,-0.500424 -0.363874,0.278827 0.262162,0.456788 0.464631,0.60617 0.576428,0.425281 0.09477,-0.153356 -6.05e-4,-0.470202 -0.212554,-0.704108 z m 10.484456,-0.233373 c 0,-0.49443 -0.08257,-0.685065 -0.232033,-0.535611 -0.127613,0.127614 -0.168998,0.473055 -0.09196,0.767643 0.197582,0.755565 0.323994,0.665035 0.323993,-0.232032 z M 28.075058,70.018166 c -0.102415,-0.102415 -0.339303,0.02314 -0.526421,0.279073 -0.528452,0.722705 -0.400615,1.020362 0.186205,0.433548 0.289531,-0.289531 0.442629,-0.610214 0.340216,-0.712621 z M 27.098662,69.29148 c -0.08551,-0.2228 -0.229066,-0.289048 -0.346911,-0.160082 -0.294587,0.322393 -0.520741,1.441598 -0.329871,1.632467 0.250297,0.250296 0.843014,-1.039194 0.676782,-1.472385 z M 25.9913,69.562137 c 0.153544,-0.609773 0.218226,-1.169616 0.143743,-1.244105 -0.07449,-0.07448 -0.430182,-0.03238 -0.790438,0.09357 -0.783187,0.273806 -1.003673,1.276567 -0.411011,1.869224 0.594323,0.594324 0.754489,0.485494 1.057706,-0.718686 z m 29.763823,0.807071 c 0,-0.165881 -0.485772,-0.595024 -1.079498,-0.953642 -0.59372,-0.358625 -1.079492,-0.607527 -1.079492,-0.553115 0,0.170504 1.789866,1.804094 1.979074,1.806287 0.09896,0.0012 0.179916,-0.133648 0.179916,-0.29953 z M 23.550126,70.084634 c 0.397018,-0.01 0.539748,-0.157338 0.539748,-0.55733 v -0.543792 l -1.259415,0.632623 c -1.589684,0.798522 -1.707141,0.918958 -0.659695,0.676436 0.461787,-0.10691 1.082496,-0.200488 1.379362,-0.207937 z m 7.256616,-0.958779 c 0,-1.125807 -0.125849,-1.362407 -0.623172,-1.171561 -0.336048,0.128947 -0.493036,2.000123 -0.192985,2.300173 0.395442,0.395448 0.816157,-0.186333 0.816157,-1.128612 z m 26.739122,0.444647 c 0.223622,-0.34129 0.334701,-0.692127 0.246828,-0.779636 -0.170569,-0.169869 -1.078016,0.829197 -1.078016,1.186853 0,0.415605 0.430134,0.204875 0.831188,-0.407217 z M 59.485203,69.0107 c -0.241349,-0.390499 -0.611532,-0.07195 -0.611532,0.526235 0,0.476376 0.03052,0.486503 0.388217,0.128803 0.213521,-0.213515 0.314013,-0.508285 0.223315,-0.655038 z M 29.367412,68.485247 c 0,-0.339769 -0.365173,-0.249041 -0.914203,0.227125 -0.398234,0.345394 -0.444985,0.503307 -0.21662,0.731701 0.228377,0.228407 0.381801,0.179402 0.711021,-0.227133 0.230889,-0.285108 0.419802,-0.614376 0.419802,-0.731693 z m 26.727528,0.591954 c 0.207135,-0.539779 0.03426,-0.651079 -0.717956,-0.462282 -0.609513,0.152983 -0.61872,0.177125 -0.191087,0.500962 0.585171,0.443136 0.726456,0.43713 0.909043,-0.03866 z M 31.525272,68.34094 c -0.261382,-0.407635 -0.268155,-0.407116 -0.136923,0.01063 0.07593,0.241681 0.146578,0.565535 0.157,0.719664 0.01365,0.202266 0.05178,0.199323 0.136918,-0.01063 0.0649,-0.159949 -0.0061,-0.483803 -0.156995,-0.719664 z m 21.620849,0.10691 c -0.236921,-0.235156 -0.264469,-0.2076 -0.134288,0.13429 0.09009,0.23658 0.22422,0.369721 0.29808,0.295862 0.07386,-0.07386 1.51e-4,-0.267424 -0.163792,-0.430152 z m 9.445818,-0.05227 c -0.395811,-0.174425 -0.820447,-0.254991 -0.943625,-0.179016 -0.272555,0.168087 0.520729,0.502417 1.183511,0.498793 0.36095,-0.0018 0.301537,-0.08119 -0.239886,-0.319777 z m -8.036254,-0.255516 c 0,-0.204458 0.16988,-0.70026 0.377517,-1.101786 0.477646,-0.923664 0.337659,-1.059405 -0.595116,-0.577045 -0.785936,0.406427 -0.995784,1.22102 -0.45409,1.762714 0.395268,0.395267 0.671689,0.360751 0.671689,-0.08389 z m 6.212779,0.0412 c 0.216874,-0.261323 0.160237,-0.361096 -0.270487,-0.476498 -0.299646,-0.08029 -0.760709,-0.143853 -1.024586,-0.141268 -0.451062,0.0042 -0.445885,0.03293 0.08655,0.476505 0.671719,0.559589 0.844573,0.579793 1.208526,0.141261 z m 14.177718,0.224746 c 0,-0.253197 -0.460373,-0.359572 -0.597303,-0.138018 -0.08287,0.13409 0.01764,0.243803 0.223318,0.243803 0.205693,0 0.373985,-0.04761 0.373985,-0.10578 z m 1.499186,-1.993227 c 0.201494,-0.824617 0.278107,-1.499307 0.170255,-1.499307 -0.107852,0 -0.318073,0.620713 -0.467156,1.37936 -0.149082,0.758646 -0.325055,1.541285 -0.391043,1.739194 -0.07643,0.229046 -0.03972,0.272639 0.100809,0.119939 0.121438,-0.131938 0.385656,-0.91457 0.587141,-1.739186 z m -47.047283,1.09769 c 0.258012,-0.407424 0.160904,-0.700356 -0.336082,-1.01385 -0.311735,-0.196639 -0.552956,-0.100687 -1.125192,0.447547 -0.400614,0.383813 -0.72839,0.799809 -0.72839,0.924438 0,0.33456 1.953313,0.0151 2.189664,-0.358135 z m 26.840092,0.10175 c 0.0018,-0.230889 0.06837,-0.662691 0.147924,-0.959551 0.235991,-0.880599 -0.493752,-0.652705 -0.822676,0.256918 -0.381232,1.054292 -0.369596,1.122443 0.191698,1.122443 0.295755,0 0.481036,-0.161019 0.483054,-0.41981 z m 1.29358,-0.127619 c 0.181868,-0.288323 0.167222,-0.48333 -0.05281,-0.703382 -0.246019,-0.246013 -0.347883,-0.235772 -0.530686,0.05334 -0.320031,0.506201 -0.287816,1.2555 0.04917,1.14318 0.15549,-0.05183 0.395957,-0.273758 0.534355,-0.493169 z m -4.175516,-0.05232 c 0,-0.197903 -0.101584,-0.359832 -0.225731,-0.359832 -0.302491,0 -0.519141,0.37461 -0.327486,0.566267 0.270162,0.270155 0.553217,0.164533 0.553217,-0.206435 z m 7.572805,-0.485512 c -0.691196,-0.594427 -1.152778,-0.689282 -1.110221,-0.228153 0.01192,0.12864 0.370812,0.360618 0.797629,0.515503 1.089873,0.395491 1.097956,0.38806 0.312592,-0.28735 z M 31.450392,66.30781 c -0.07657,-0.19137 -0.133426,-0.134525 -0.144935,0.144929 -0.01041,0.252882 0.04628,0.394566 0.125994,0.314858 0.07971,-0.07971 0.08824,-0.286619 0.0189,-0.459787 z m 1.349273,0.14943 c 0.410649,-0.15758 0.281018,-0.909865 -0.229852,-1.333849 -0.492593,-0.408812 -0.866274,0.05625 -0.670849,0.834864 0.164492,0.655387 0.298975,0.729888 0.900701,0.498985 z m 25.009897,-1.248528 c -0.07883,-0.07883 -0.266494,-0.02018 -0.417031,0.130376 -0.205007,0.205006 -0.188954,0.376494 0.06397,0.683282 0.31263,0.379208 0.343557,0.36954 0.417031,-0.130374 0.04362,-0.296976 0.01486,-0.604452 -0.06397,-0.683284 z m 3.132407,-0.187384 c -0.334885,-0.936998 -0.341277,-0.940846 -0.578017,-0.347761 -0.19476,0.487924 -0.144445,0.703002 0.269883,1.153733 0.63855,0.694659 0.744981,0.416287 0.308134,-0.805972 z m -29.990292,0.196985 c -0.243849,-0.243844 -0.445057,0.123275 -0.244979,0.447002 0.151139,0.24455 0.207642,0.24474 0.288897,6.05e-4 0.05558,-0.166666 0.03577,-0.368261 -0.04393,-0.44797 z m 24.055566,0.320906 0.571505,-0.316798 -0.787219,-0.274426 c -0.977259,-0.340675 -1.724736,-0.374406 -1.220414,-0.0551 0.184145,0.116605 0.2685,0.384827 0.187444,0.596052 -0.182957,0.476776 0.4344,0.50162 1.248684,0.05027 z M 36.061257,61.982355 c 0.01716,-0.486188 -0.06855,-0.617022 -0.336802,-0.514083 -0.197909,0.07595 -0.359833,0.351006 -0.359833,0.611254 0,0.40599 -0.107331,0.449594 -0.755934,0.307135 l -0.755933,-0.166026 0.562103,0.926606 c 0.309155,0.509632 0.67631,1.120051 0.815903,1.356476 0.214856,0.363904 0.296287,0.253462 0.530633,-0.71966 0.152257,-0.632248 0.287199,-1.443016 0.299863,-1.801702 z m -5.671592,1.353092 c -0.404711,-0.848693 -0.910264,-1.142555 -0.689977,-0.401067 0.06861,0.23089 0.196247,0.719569 0.283677,1.085945 0.124242,0.520632 0.228728,0.608238 0.478353,0.401067 0.264223,-0.219285 0.251778,-0.406873 -0.07205,-1.085945 z m 25.467908,1.154537 c -0.141565,-0.09694 -0.329993,-0.372733 -0.418734,-0.612878 -0.103123,-0.279062 -0.349737,-0.408911 -0.683379,-0.359834 -0.778355,0.11451 -0.795869,0.594875 -0.03185,0.873482 0.804908,0.29352 1.507493,0.355 1.133963,0.09923 z m 1.336882,0.08931 c 0,-0.05183 -0.167532,-0.15857 -0.372291,-0.237143 -0.213484,-0.08192 -0.309772,-0.04168 -0.225732,0.09428 0.140875,0.227949 0.598023,0.337158 0.598023,0.14287 z M 53.42575,63.953905 c 0.09365,-0.358118 0.0073,-0.479774 -0.340293,-0.479774 -0.391424,0 -0.424782,0.07657 -0.20899,0.479774 0.141219,0.263878 0.294353,0.479778 0.340294,0.479778 0.04592,0 0.139981,-0.2159 0.208989,-0.479778 z M 28.451838,63.422153 c -0.172136,-0.172135 -0.283864,-0.186298 -0.283864,-0.036 0,0.320199 0.283695,0.603894 0.443794,0.443794 0.06815,-0.06817 -0.0035,-0.25168 -0.15993,-0.40781 z m 29.222395,0.291863 c -0.465091,-0.300558 -0.719664,-0.300558 -0.719664,0 0,0.131938 0.242882,0.238236 0.539748,0.236219 0.436459,-0.003 0.470891,-0.04816 0.179916,-0.236219 z M 33.420499,63.494664 c 0.184146,-0.116604 0.268748,-0.384168 0.188,-0.594589 -0.120345,-0.313624 -0.252941,-0.334228 -0.735634,-0.114303 -0.347628,0.15839 -0.536951,0.40346 -0.462197,0.598268 0.144687,0.377052 0.523521,0.418553 1.009831,0.11062 z m 22.814403,-0.606099 c 0,-0.05819 -0.107951,-0.172503 -0.239892,-0.254048 -0.131933,-0.08153 -0.239887,-0.03395 -0.239887,0.105781 0,0.139728 0.107951,0.254048 0.239887,0.254048 0.131945,0 0.239892,-0.04761 0.239892,-0.105781 z m 1.679217,-0.134101 c 0,-0.13194 -0.04761,-0.239886 -0.105781,-0.239886 -0.05819,0 -0.172503,0.107951 -0.254047,0.239886 -0.08155,0.13194 -0.03395,0.239885 0.105781,0.239885 0.139727,0 0.254047,-0.10794 0.254047,-0.239885 z m -26.913467,-0.70415 c -0.159465,-0.255343 -0.381523,-0.407654 -0.493458,-0.338476 -0.228716,0.141353 0.241615,0.80274 0.57084,0.80274 0.116908,0 0.08208,-0.208918 -0.07739,-0.464264 z m 1.803841,0.164298 c 0.376102,-0.275019 0.378785,-0.344856 0.03225,-0.839612 -0.383309,-0.547253 -1.168643,-0.723079 -1.419163,-0.317735 -0.189758,0.307036 0.363718,1.457313 0.701214,1.457313 0.151508,0 0.460077,-0.134991 0.685706,-0.299966 z m 24.139659,0.144144 c -0.203643,-0.0551 -0.504466,-0.447379 -0.668511,-0.871755 -0.264535,-0.684364 -0.32624,-0.723211 -0.54582,-0.343616 -0.195402,0.337793 -0.130363,0.525659 0.308671,0.8916 0.305934,0.254997 0.718167,0.454695 0.916077,0.443782 0.306798,-0.01692 0.305263,-0.03461 -0.01041,-0.120011 z m 2.011583,-0.191795 c 0.08898,-0.231881 0.01813,-0.303379 -0.212842,-0.214753 -0.190435,0.07307 -0.286516,0.229501 -0.21352,0.347609 0.183861,0.29749 0.271725,0.270108 0.426362,-0.132856 z M 28.644073,61.854883 c -0.0061,-0.694357 -0.412402,-1.179181 -0.725695,-0.865887 -0.199504,0.199502 -0.187107,0.401627 0.04774,0.777628 0.38545,0.61721 0.682945,0.655938 0.677977,0.08825 z m 25.97827,0.03328 c 0.142259,-0.14225 -1.068707,-1.292703 -1.360704,-1.292703 -0.19746,0 -0.185106,1.079662 0.01463,1.279408 0.200434,0.200434 1.149552,0.209817 1.346065,0.0133 z m -18.60356,-1.157722 c 0.02996,-0.02416 -0.496358,-0.577166 -1.169562,-1.228898 -1.143197,-1.106741 -1.213636,-1.140762 -1.066877,-0.515244 0.109446,0.466505 0.0368,0.790093 -0.239518,1.066381 -0.368937,0.368938 -0.349641,0.434134 0.276251,0.933198 0.635674,0.50687 0.713631,0.515861 1.409081,0.162522 0.404904,-0.205714 0.760682,-0.393794 0.790625,-0.417959 z m -5.691819,0.250556 c 0,-0.18379 -0.161925,-0.396301 -0.359833,-0.472245 -0.402269,-0.154373 -0.422116,-0.114812 -0.214221,0.426962 0.179844,0.468662 0.574054,0.499759 0.574054,0.04532 z M 55.36319,60.712599 c 0.07655,-0.199467 0.01909,-0.626261 -0.127715,-0.948424 -0.258894,-0.56821 -0.288872,-0.574379 -1.00118,-0.206028 l -0.734293,0.379717 0.661165,0.568705 c 0.770651,0.662887 1.010906,0.704073 1.202023,0.20603 z m 2.790815,-0.09052 c 0,-0.249257 -0.213972,-0.708048 -0.475495,-1.019528 l -0.475495,-0.566321 0.415526,1.01708 c 0.466958,1.142985 0.535464,1.215757 0.535464,0.568769 z m 2.043184,-0.513033 c 0.08294,-0.134193 -0.02683,-0.778687 -0.243875,-1.432208 -0.392602,-1.182026 -0.397695,-1.186231 -0.977041,-0.806629 -0.691167,0.452869 -0.777432,1.484933 -0.198025,2.369218 0.305947,0.466927 0.474505,0.538353 0.826249,0.350099 0.243045,-0.130073 0.509752,-0.346287 0.592692,-0.48048 z M 32.363671,59.735372 c 0.484345,-0.317354 0.534836,-0.453473 0.304839,-0.821758 -0.262682,-0.420618 -0.30823,-0.414003 -0.967176,0.140464 -0.380333,0.320029 -0.791181,0.581871 -0.912994,0.581871 -0.12182,0 -0.221483,0.107951 -0.221483,0.239886 0,0.372588 1.151146,0.282591 1.796814,-0.140463 z m 24.111118,-0.968403 c 0,-0.430945 -0.345236,-0.421785 -0.710942,0.01885 -0.395158,0.47613 -0.0839,0.971255 0.372467,0.5925 0.186163,-0.1545 0.338475,-0.429615 0.338475,-0.611369 z m -1.922777,-0.06911 c -0.0018,-0.07778 -0.09615,-0.287336 -0.209177,-0.465702 -0.161011,-0.254083 -0.290039,-0.203587 -0.596047,0.233296 -0.546877,0.780783 -0.487494,0.964494 0.209172,0.647074 0.329847,-0.150288 0.598069,-0.336885 0.596052,-0.414668 z M 30.566857,58.065171 c 0,-0.307947 -0.102537,-0.62327 -0.227852,-0.700718 -0.298739,-0.18463 -0.805887,0.77262 -0.63931,1.206699 0.198494,0.517275 0.867162,0.127112 0.867162,-0.505981 z m 25.424486,-0.41674 c -0.0018,-0.160281 -0.103378,-0.449052 -0.225248,-0.641715 -0.189886,-0.300206 -0.291156,-0.287314 -0.708271,0.09017 -0.378158,0.342232 -0.432677,0.541404 -0.24446,0.893092 0.193631,0.36181 0.336488,0.402192 0.711944,0.201256 0.258338,-0.138259 0.468052,-0.382513 0.466035,-0.542801 z m -24.343556,0.305983 c 0.08232,-0.133214 -0.08895,-0.538021 -0.380617,-0.899582 l -0.530306,-0.657375 0.151606,0.599725 c 0.08339,0.329842 0.153084,0.734655 0.154885,0.899576 0.0042,0.359868 0.39462,0.397141 0.604432,0.05764 z m 26.266332,0.04248 c 0,-0.109855 -0.431807,-0.546744 -0.959563,-0.970868 -0.93205,-0.749016 -0.951583,-0.753602 -0.681162,-0.160087 0.153127,0.336064 0.476976,0.611029 0.719678,0.611029 0.242695,0 0.441269,0.161924 0.441269,0.359834 0,0.197908 0.107951,0.359831 0.239892,0.359831 0.13194,0 0.239886,-0.08988 0.239886,-0.199739 z m -27.828618,-2.14497 c -0.0012,-0.290499 -0.143769,-0.199317 -0.478203,0.305656 -0.262138,0.395818 -0.476921,0.935567 -0.477296,1.199445 -5.2e-4,0.377312 0.101584,0.312037 0.478197,-0.305663 0.263383,-0.431989 0.478167,-0.971737 0.477302,-1.199438 z m 2.874903,0.485573 c -0.0035,-0.725986 -0.163289,-1.344845 -0.440609,-1.705433 l -0.435282,-0.565969 -0.519704,0.880834 -0.519702,0.880828 0.628955,0.824604 c 0.898633,1.178172 1.292879,1.081666 1.286342,-0.314864 z m 25.983617,0.839612 c 0.258417,-0.192791 0.352262,-0.485683 0.262828,-0.820255 -0.110443,-0.413114 -0.384809,-0.554176 -1.331004,-0.684314 -0.655531,-0.09016 -1.256937,-0.09887 -1.336446,-0.01933 -0.134609,0.13461 1.572617,1.791763 1.868619,1.813808 0.07375,0.0054 0.314938,-0.124955 0.536003,-0.289874 z M 35.451646,54.958858 c -0.0603,-0.157061 0.0012,-0.972258 0.136175,-1.81155 0.187873,-1.16659 0.176406,-1.570037 -0.0487,-1.713038 -0.781895,-0.496721 -1.092469,-0.08196 -1.291471,1.724704 -0.240497,2.183321 -0.238534,2.527494 0.0168,2.947865 0.241229,0.397176 0.299053,0.381087 0.778687,-0.216687 0.284965,-0.35515 0.468802,-0.774234 0.408529,-0.931294 z M 56.327255,54.00702 c 0.469461,-0.71648 0.494201,-1.087932 0.07247,-1.087932 -0.412941,0 -1.658821,1.304697 -1.447591,1.515927 0.344227,0.344234 1.003608,0.139003 1.375121,-0.427995 z m -24.69035,-0.352987 c 0.336862,-0.545047 -0.341219,-0.424841 -0.701008,0.124278 -0.391667,0.597751 -0.389383,0.607869 0.08035,0.35648 0.265895,-0.142302 0.545192,-0.358643 0.620666,-0.480758 z m 26.397161,0.464494 c 0.08153,-0.13194 -0.06765,-0.239887 -0.33152,-0.239887 -0.26388,0 -0.546494,0.107951 -0.628038,0.239887 -0.08154,0.131937 0.06765,0.239886 0.33152,0.239886 0.26388,0 0.546494,-0.107951 0.628038,-0.239886 z m -3.671989,-4.053965 c -0.12424,-0.07924 -0.302013,-0.494919 -0.395037,-0.923717 -0.09302,-0.428799 -0.270712,-0.779636 -0.394857,-0.779636 -0.230256,0 -0.130011,2.308649 0.187487,4.317986 l 0.170576,1.079498 0.32887,-1.77502 c 0.201291,-1.086453 0.241228,-1.830919 0.102957,-1.919111 z m 3.101971,0.47984 c 1.1302,-1.483195 1.169738,-1.589329 1.169738,-3.140021 0,-1.466573 -0.0502,-1.627819 -0.582621,-1.870389 -0.559519,-0.254937 -0.592348,-0.220082 -0.828097,0.879178 -0.135014,0.629555 -0.184097,1.37938 -0.10907,1.666283 0.101783,0.389207 0.02954,0.521642 -0.284426,0.521642 -0.36727,0 -0.401273,-0.160299 -0.267105,-1.259415 0.08454,-0.692676 0.219949,-1.502297 0.300891,-1.799157 0.08871,-0.325358 0.04077,-0.539749 -0.120703,-0.539749 -0.147327,0 -0.267865,0.279557 -0.267865,0.62124 0,0.341683 -0.213333,0.800467 -0.47407,1.019522 -0.615585,0.517176 -0.986274,3.567158 -0.472167,3.884898 0.253106,0.156426 0.265014,0.322434 0.05425,0.755801 -0.148562,0.305445 -0.341268,0.879202 -0.428244,1.27502 l -0.15813,0.719666 0.648953,-0.599726 c 0.35692,-0.329847 1.175326,-1.290505 1.818684,-2.134793 z M 33.26446,50.468012 c 0.197691,-1.346966 -0.36417,-0.46914 -0.954676,1.491525 -0.05963,0.197909 0.10877,0.09347 0.374169,-0.232116 0.265395,-0.325571 0.526627,-0.892309 0.580507,-1.259409 z m 3.059714,-0.293477 c 0,-0.05818 -0.107951,-0.172504 -0.239886,-0.254049 -0.131939,-0.08153 -0.239893,-0.03395 -0.239893,0.105792 0,0.139719 0.107951,0.254042 0.239893,0.254042 0.131938,0 0.239886,-0.04761 0.239886,-0.105781 z m -0.07426,-1.270722 c -0.369101,-0.369101 -0.405527,-0.370382 -0.405527,-0.01426 0,0.215181 0.134943,0.439439 0.299863,0.498339 0.490141,0.175053 0.539351,-0.05038 0.105659,-0.484064 z m -1.999676,-0.743724 c -0.490437,-0.109822 -0.655822,0.0978 -0.467931,0.58743 0.143207,0.373197 0.184182,0.36907 0.493311,-0.0496 0.2921,-0.395629 0.288711,-0.467466 -0.02537,-0.537802 z m 20.76835,-0.578513 c 0.0093,-0.230897 -0.08317,-0.41981 -0.205436,-0.41981 -0.281846,0 -0.43649,0.697783 -0.289569,1.306541 0.111664,0.462652 0.114371,0.462652 0.295423,0 0.100499,-0.256809 0.190315,-0.65584 0.199582,-0.886731 z M 35.152201,47.101795 c 0.156335,-0.296861 0.402119,-0.616214 0.546183,-0.70968 0.322254,-0.209042 -0.0012,-0.551681 -0.727369,-0.770506 -0.421523,-0.127033 -0.561221,-0.01801 -0.779634,0.608553 -0.146348,0.419821 -0.26609,0.909126 -0.26609,1.087345 0,0.529678 0.919514,0.368013 1.22691,-0.215712 z M 56.06713,44.992799 c 0.106755,-0.408251 0.06902,-0.446591 -0.210934,-0.214251 -0.187523,0.155634 -0.34096,0.438049 -0.34096,0.627583 0,0.482558 0.394966,0.186751 0.551894,-0.413332 z M 35.844395,44.89127 c 0,-0.307028 -0.678611,-0.848052 -1.063723,-0.848052 -0.344783,0 -0.08735,0.937016 0.284087,1.034082 0.721413,0.188527 0.779636,0.174637 0.779636,-0.18603 z m 23.36725,-2.348252 c 0.383794,-1.351879 0.746176,-2.592889 0.8053,-2.757817 0.05915,-0.16492 -0.06378,-0.299856 -0.273122,-0.299856 -0.426322,0 -1.349925,1.63475 -1.349925,2.389325 0,0.269134 -0.10134,0.489331 -0.225192,0.489331 -0.123855,0 -0.299826,0.497711 -0.391051,1.10602 -0.153677,1.024784 0.04399,1.514962 0.616243,1.528175 0.06596,0.0012 0.433954,-1.103308 0.817747,-2.455178 z M 34.165179,44.28311 c 0,-0.131939 -0.04762,-0.239892 -0.105781,-0.239892 -0.05819,0 -0.172504,0.107951 -0.254048,0.239892 -0.08154,0.13194 -0.03396,0.239886 0.105792,0.239886 0.139721,0 0.254043,-0.107951 0.254043,-0.239886 z m 21.350057,0 c 0,-0.131939 -0.04761,-0.239892 -0.10578,-0.239892 -0.05819,0 -0.172509,0.107951 -0.254048,0.239892 -0.08155,0.13194 -0.03396,0.239886 0.105781,0.239886 0.139726,0 0.254047,-0.107951 0.254047,-0.239886 z m 1.603201,-0.524759 c -0.07657,-0.191365 -0.133419,-0.134525 -0.144935,0.144935 -0.01041,0.252882 0.04629,0.394568 0.126,0.314852 0.0797,-0.07971 0.08823,-0.286619 0.01891,-0.459787 z M 35.650099,43.080005 c -0.185734,-0.502092 -0.220148,-0.512603 -0.373112,-0.113983 -0.09982,0.260132 -0.0458,0.514954 0.132531,0.625173 0.418655,0.258742 0.478419,0.131746 0.240581,-0.51119 z m 20.850953,-0.05631 0.53871,-0.779636 -0.64232,0.581565 c -0.353271,0.31986 -0.642319,0.670697 -0.642319,0.779635 0,0.362926 0.20229,0.205213 0.745929,-0.581564 z m -0.955214,-0.09924 c 0.298533,-0.361893 0.278904,-0.372291 -0.210517,-0.111506 -0.558213,0.29744 -0.695663,0.510617 -0.329232,0.510617 0.115783,0 0.358667,-0.179604 0.539749,-0.399111 z m -19.19238,-0.722377 c -0.209074,-0.359537 -0.255885,-0.369898 -0.261879,-0.058 -0.0078,0.403991 0.244492,0.767733 0.414512,0.597719 0.05606,-0.05606 -0.01262,-0.298962 -0.152633,-0.53975 z m 19.374103,-0.775515 c 0.266506,-0.168781 0.234014,-0.263014 -0.164147,-0.476105 -0.679555,-0.363688 -0.767843,-0.339068 -0.767843,0.214106 0,0.506477 0.378121,0.61277 0.93199,0.261999 z m 1.15099,-0.546865 c -0.07657,-0.191366 -0.133425,-0.134526 -0.144935,0.144933 -0.01041,0.252878 0.04629,0.394562 0.125995,0.314852 0.07971,-0.07972 0.08824,-0.286619 0.0189,-0.459785 z M 37.545725,39.070706 c -0.217526,-0.373645 -0.247898,-0.352536 -0.251426,0.174745 -0.0024,0.329847 0.07547,0.869595 0.172618,1.199444 0.169247,0.574616 0.179771,0.5673 0.251425,-0.174744 0.04114,-0.42596 -0.03655,-0.96571 -0.172617,-1.199445 z m 18.586438,0.711714 c -0.07983,-0.07984 -0.277382,-0.01292 -0.439004,0.148705 -0.231881,0.231888 -0.21839,0.341013 0.06397,0.517443 0.254912,0.159278 0.381178,0.116503 0.439004,-0.148711 0.04465,-0.20476 0.01583,-0.437607 -0.06397,-0.517437 z m -19.32821,0.562151 c 0,-0.365692 -0.326657,-0.833919 -0.504919,-0.723748 -0.350897,0.216861 -0.243995,0.824072 0.145086,0.824072 0.197902,0 0.359833,-0.04513 0.359833,-0.100321 z m 21.681472,-0.51186 c 0.08193,-0.213478 0.04168,-0.309771 -0.09428,-0.22573 -0.130428,0.08061 -0.237144,0.248145 -0.237144,0.372297 0,0.34506 0.171948,0.269025 0.33142,-0.146567 z M 38.363224,38.765677 c 0.08155,-0.131939 0.03396,-0.239893 -0.105781,-0.239893 -0.139727,0 -0.254049,0.107951 -0.254049,0.239893 0,0.13194 0.04761,0.239886 0.105781,0.239886 0.05819,0 0.172503,-0.107951 0.254049,-0.239886 z m 20.736855,-0.214699 c 0.180636,-0.33752 0.151919,-0.530415 -0.1115,-0.74904 -0.287024,-0.238206 -0.354793,-0.223851 -0.354793,0.07513 0,0.203273 -0.06553,0.540341 -0.145613,0.74904 -0.206222,0.537411 0.318568,0.472976 0.611906,-0.07513 z m -2.312523,-0.661054 c -0.122333,-0.318797 -0.17994,-0.319437 -0.493898,-0.0054 -0.195479,0.19548 -0.279055,0.478963 -0.185729,0.62997 0.24672,0.399207 0.8572,-0.161742 0.679627,-0.624491 z M 36.544122,36.888038 c -0.573111,-1.016284 -0.995191,-0.95774 -0.816573,0.113258 0.262609,1.574636 0.330868,1.668179 0.764972,1.048407 0.343659,-0.490642 0.349966,-0.632598 0.0516,-1.161665 z m 2.071091,-0.158468 c 0.153538,-1.023872 6.03e-4,-2.014757 -0.269233,-1.744879 -0.206119,0.206119 -0.277278,2.821434 -0.07677,2.821434 0.101507,0 0.257208,-0.484449 0.346005,-1.076555 z M 55.93594,36.561367 c -0.651865,-0.492605 -1.048952,-0.200571 -0.675677,0.496909 0.230287,0.430297 0.337788,0.460306 0.742788,0.207381 0.466046,-0.291053 0.464989,-0.302182 -0.06711,-0.70429 z m 4.118742,0.349799 c 0.297719,-0.653419 0.297211,-0.653932 -0.201382,-0.202707 -0.515612,0.46662 -0.651713,0.857773 -0.298467,0.857773 0.110757,0 0.33569,-0.294781 0.499849,-0.655066 z m -0.0878,-1.046342 c 0.08821,-0.142724 0.04942,-0.370448 -0.08617,-0.506048 -0.168811,-0.168812 -0.37104,-0.0061 -0.641353,0.516905 -0.385599,0.745676 -0.383594,0.757463 0.08617,0.506049 0.26453,-0.14157 0.553137,-0.374183 0.641347,-0.516906 z m -22.352864,0.08216 c 0.213182,-0.729163 0.629257,-3.24424 0.629257,-3.803692 0,-1.068751 -2.447875,-1.247235 -3.162785,-0.230612 -0.476626,0.677766 1.409164,4.454112 2.224247,4.454112 0.102603,0 0.241777,-0.188913 0.309281,-0.419808 z m 20.056539,-0.86898 c 0.0018,-0.115108 -0.157067,-0.07589 -0.353518,0.08716 -0.196453,0.163048 -0.29091,0.403689 -0.209903,0.534765 0.148669,0.240551 0.556178,-0.209262 0.563421,-0.621916 z m -1.487828,0.26926 c 0.13556,-0.16492 0.283714,-0.515757 0.329238,-0.779634 0.06281,-0.3641 -0.03039,-0.460042 -0.386573,-0.397914 -0.657968,0.114762 -1.119465,0.792951 -0.800842,1.176872 0.315281,0.379891 0.546341,0.380073 0.858177,6.03e-4 z m 4.494732,-2.278658 -0.159718,-0.851387 -0.493687,0.493687 c -0.580247,0.580247 -0.442889,1.650918 0.229137,1.786041 0.512501,0.103046 0.634507,-0.307681 0.424268,-1.428341 z m -25.957323,0.959277 c -0.08231,-0.230892 -0.246303,-0.545387 -0.364419,-0.69887 -0.118121,-0.153484 -0.269218,-0.585286 -0.33578,-0.959552 -0.06656,-0.374266 -0.284281,-0.842414 -0.483833,-1.040323 -0.246097,-0.244068 -0.164685,0.170279 0.253075,1.287979 0.338741,0.906289 0.615893,1.688926 0.615893,1.739188 0,0.05027 0.104562,0.09137 0.23236,0.09137 0.127794,0 0.16501,-0.188913 0.0827,-0.419804 z m 21.532573,-1.175985 c 1.446395,-1.37962 1.68306,-1.762646 1.089112,-1.762646 -0.182823,0 -0.633186,-0.156047 -1.000799,-0.346766 -0.623809,-0.32363 -0.686841,-0.311191 -0.945059,0.186508 -0.27961,0.538958 -0.840276,2.557491 -0.840276,3.025198 0,0.442803 0.241837,0.285719 1.697022,-1.102294 z m -1.582482,-2.485823 c -0.0975,-0.319075 -4.14992,-2.038277 -4.34491,-1.843293 -0.04145,0.04146 0.756926,1.289522 1.774151,2.773519 l 1.849491,2.698165 0.416148,-1.632521 c 0.228885,-0.89789 0.366183,-1.796027 0.30512,-1.99587 z m 3.565846,2.774441 c 0.08916,-0.232334 0.01813,-0.303377 -0.214226,-0.214221 -0.191185,0.07337 -0.347612,0.229791 -0.347612,0.347617 0,0.344868 0.416232,0.246043 0.561838,-0.133396 z m 0.157828,-1.211653 c 0.172128,-0.207406 0.195444,-0.359833 0.05504,-0.359833 -0.133976,0 -0.305729,0.161924 -0.381673,0.359833 -0.07595,0.197908 -0.10071,0.359832 -0.05504,0.359832 0.04568,0 0.21743,-0.161924 0.381679,-0.359832 z M 38.48317,30.505148 c 0,-1.092511 -1.297617,-2.954274 -1.967806,-2.823319 -0.889437,0.17379 -0.764435,1.015088 0.314116,2.114046 1.051657,1.071558 1.65369,1.329776 1.65369,0.709273 z m -4.317991,-0.730715 c 0,-0.690642 -0.103699,-0.861067 -0.599721,-0.985556 -0.329847,-0.08279 -0.599719,-0.264761 -0.599719,-0.404385 0,-0.139623 -0.05891,-0.194949 -0.130918,-0.122943 -0.169844,0.169838 0.886092,2.347928 1.138272,2.347928 0.105648,0 0.192086,-0.37577 0.192086,-0.835044 z m 22.069723,-0.124514 c -0.899569,-0.757233 -1.50681,-0.934744 -1.293181,-0.378037 0.107054,0.278988 1.557566,1.056467 2.012848,1.078888 0.06597,0.003 -0.257886,-0.312133 -0.719667,-0.700851 z m 2.832329,0.113596 c -0.07386,-0.07386 -0.207993,0.05927 -0.298081,0.295864 -0.130181,0.341888 -0.102636,0.369444 0.13429,0.134288 0.163941,-0.162721 0.23765,-0.356292 0.163791,-0.430152 z m -18.9023,-1.10935 c 0.20473,-0.354402 0.14096,-0.369082 -0.606547,-0.139672 -0.837678,0.257092 -0.970347,0.504441 -0.678497,1.26499 0.138663,0.36135 0.208924,0.342777 0.606548,-0.160299 0.247341,-0.312942 0.552666,-0.747204 0.678496,-0.965019 z m -20.575419,-0.06481 c -0.151484,-0.2451 -0.49829,0.473387 -0.511932,1.060564 -0.0048,0.197908 0.14027,0.09131 0.321926,-0.236878 0.181657,-0.328186 0.267159,-0.698846 0.190006,-0.823686 z m 12.001156,-0.138874 c -0.407949,-1.038529 -0.645232,-1.18722 -0.887414,-0.556104 -0.104142,0.271388 0.06414,0.582658 0.514084,0.950925 0.367899,0.301114 0.687204,0.551361 0.709576,0.556105 0.02235,0.0048 -0.128943,-0.423175 -0.336246,-0.950926 z m 22.690143,0.372242 c -0.04671,-0.04265 -0.570738,-0.145266 -1.164457,-0.228038 l -1.079498,-0.150494 1.079498,0.435204 c 0.593719,0.23936 1.117731,0.341981 1.164457,0.228038 0.04671,-0.113939 0.04671,-0.24206 0,-0.28471 z m 4.779279,-0.886996 0.521527,-1.23442 -0.750147,-0.864599 c -0.84546,-0.974458 -2.038307,-1.753121 -1.824339,-1.190891 0.0683,0.179458 0.263539,1.135903 0.433874,2.125446 0.475259,2.760977 0.835207,3.019852 1.619085,1.164464 z m -2.230689,-1.671115 c -0.275823,-1.420065 -0.549107,-2.217155 -0.805796,-2.350296 -0.5651,-0.293096 -3.146914,-0.570955 -3.14843,-0.338838 -6.05e-4,0.108449 0.33746,1.039225 0.751494,2.068383 0.516626,1.28418 0.987385,2.048753 1.500591,2.437157 0.776121,0.587383 1.883507,0.876576 2.033384,0.531018 0.04737,-0.109224 -0.101683,-1.165568 -0.331243,-2.347424 z m 8.345904,2.508292 c -0.162412,-0.06571 -0.486261,-0.0697 -0.719664,-0.0089 -0.233404,0.06081 -0.100521,0.114586 0.295293,0.119473 0.395818,0.0048 0.586778,-0.04489 0.424371,-0.110586 z m 7.807346,-0.742225 c -0.135099,-0.494775 -0.274849,-0.931089 -0.31055,-0.969593 -0.119747,-0.129155 -2.159106,0.740092 -2.577995,1.098837 -0.662838,0.567656 -0.271226,0.770331 1.488467,0.770331 h 1.645724 z m 1.879673,0.715984 c 0.187303,-0.119619 0.01859,-0.482684 -0.525389,-1.130176 -0.440734,-0.524662 -0.868874,-0.886393 -0.951416,-0.80385 -0.08255,0.08255 -0.03087,0.592777 0.114817,1.133849 0.261661,0.971739 0.694852,1.22624 1.361988,0.800177 z M 63.413141,28.06932 c 0.448375,-0.37728 0.738076,-0.848064 0.738076,-1.199439 0,-0.525217 -0.09883,-0.578397 -1.074931,-0.578397 -0.938685,0 -1.093497,-0.07399 -1.221437,-0.583751 -0.09472,-0.377365 -0.267586,-0.53729 -0.488969,-0.452337 -0.265436,0.101861 -0.306507,0.408492 -0.182623,1.363386 0.08792,0.677591 0.251916,1.267957 0.364456,1.311941 0.112539,0.04399 0.20462,0.232891 0.20462,0.419804 0,0.540304 0.85694,0.395212 1.660808,-0.281207 z m 5.415894,0.38116 c 0.08155,-0.131938 -0.01365,-0.239887 -0.211574,-0.239887 -0.197909,0 -0.426546,0.107951 -0.50809,0.239887 -0.08154,0.131939 0.01365,0.239887 0.211574,0.239887 0.197908,0 0.426545,-0.107951 0.50809,-0.239887 z M 23.296856,27.843179 c -0.811651,-0.714059 -1.032143,-0.737416 -1.191964,-0.126254 -0.163072,0.623572 -0.0089,0.734921 1.005438,0.725973 l 0.859598,-0.0076 z m 2.781631,0.127524 c -0.06901,-0.26388 -0.166855,-0.479774 -0.217435,-0.479774 -0.05057,0 -0.09196,0.215894 -0.09196,0.479774 0,0.263877 0.09784,0.479777 0.21743,0.479777 0.119584,0 0.160969,-0.2159 0.09196,-0.479777 z m 41.890951,-0.172009 c 0.05498,-0.03734 -0.430799,-0.06301 -1.079498,-0.05704 l -1.179453,0.01085 0.719666,0.31571 c 0.523147,0.229501 0.817927,0.245082 1.079498,0.05709 0.197908,-0.142259 0.404814,-0.289198 0.459787,-0.326531 z m 9.130872,-0.298213 c 0.492309,-0.965008 0.626947,-3.33764 0.276352,-4.869832 l -0.151537,-0.662227 -0.668527,1.061174 c -0.394015,0.625439 -0.728318,1.566044 -0.814147,2.290712 -0.110376,0.931978 -0.238858,1.220609 -0.530909,1.192672 -0.950668,-0.09094 -0.983106,0.05334 -0.218921,0.973623 1.009037,1.215201 1.493186,1.218385 2.107689,0.0139 z m -56.803759,0.0281 c -0.05552,-0.382822 0.05003,-0.51745 0.405647,-0.51745 0.720087,0 0.810719,-0.374598 0.162129,-0.670117 -0.518978,-0.23646 -0.607978,-0.184114 -0.964549,0.5673 -0.399037,0.840909 -0.310296,1.404923 0.193947,1.232649 0.152835,-0.0522 0.244109,-0.327781 0.202826,-0.612382 z m 4.873968,-0.09764 c -0.288836,-1.435113 -0.391544,-1.622727 -1.084493,-1.981068 -0.646313,-0.334216 -0.712881,-0.323196 -1.062498,0.175954 -0.53471,0.763401 -0.472009,0.935681 0.655515,1.801254 1.325216,1.017335 1.695643,1.018295 1.491476,0.0035 z m 28.680949,0.438417 c -0.155755,-0.187667 -0.600771,-0.451925 -0.988927,-0.587242 -0.618177,-0.215496 -0.705739,-0.190019 -0.705739,0.205345 0,0.308243 0.209176,0.483048 0.659689,0.551295 1.323734,0.200531 1.339806,0.197903 1.034977,-0.169398 z m 11.194328,0.19629 c -0.0797,-0.07971 -0.286614,-0.08824 -0.459788,-0.01897 -0.191364,0.07657 -0.134518,0.133426 0.144935,0.144935 0.252883,0.01041 0.394567,-0.04629 0.314853,-0.125994 z M 27.208421,27.864893 c 0,-0.05819 -0.107951,-0.172503 -0.239892,-0.254049 -0.131939,-0.08154 -0.239886,-0.03395 -0.239886,0.105792 0,0.139721 0.107951,0.254042 0.239886,0.254042 0.131939,0 0.239892,-0.04761 0.239892,-0.10578 z m 6.426469,-0.228866 c -0.170129,-0.184062 -0.392041,-0.284554 -0.493149,-0.223315 -0.274295,0.166136 0.03987,0.557965 0.447334,0.557965 0.291689,0 0.299876,-0.05982 0.0458,-0.33465 z m 4.368501,-0.02519 c 0,-0.197909 -0.104563,-0.359833 -0.232359,-0.359833 -0.1278,0 -0.170224,0.161924 -0.09429,0.359833 0.07595,0.197909 0.180509,0.359832 0.232358,0.359832 0.05183,0 0.09429,-0.161923 0.09429,-0.359832 z m 1.6665,-0.924323 c -0.29903,-0.276795 -1.186721,0.359899 -1.186721,0.85117 0,0.536836 0.0061,0.535827 0.646971,-0.104951 0.355833,-0.355833 0.598717,-0.69163 0.53975,-0.746225 z m 0.837691,0.540806 c -0.09547,-0.154468 -0.268193,-0.13977 -0.486499,0.04138 -0.51183,0.424781 -0.405344,0.754604 0.148022,0.458457 0.26757,-0.143201 0.419889,-0.36814 0.338477,-0.499867 z m 29.281005,0.503463 c 0.08155,-0.13194 0.03395,-0.239886 -0.10578,-0.239886 -0.139728,0 -0.254049,0.107951 -0.254049,0.239886 0,0.131939 0.04761,0.239886 0.105781,0.239886 0.05819,0 0.17251,-0.107951 0.254048,-0.239886 z M 29.787214,27.221808 c 0.732414,-0.269793 0.678231,-0.606546 -0.168001,-1.044148 -0.996534,-0.515329 -1.501507,-0.446459 -2.02893,0.276716 -0.441644,0.605563 -0.442387,0.638858 -0.0212,0.946854 0.423598,0.30974 1.02148,0.261381 2.218121,-0.179422 z m 5.680213,0.131999 c 0.207334,-0.207334 0.376968,-0.687493 0.376968,-1.067022 0,-0.658335 -0.0322,-0.678829 -0.700429,-0.445878 -0.773624,0.269689 -1.063928,0.76392 -0.848118,1.443886 0.172999,0.545066 0.666462,0.574133 1.171579,0.06902 z m 15.829747,-0.188416 c -0.09727,-0.253469 -0.420395,-0.39058 -0.905231,-0.384114 l -0.75397,0.01008 0.839612,0.448012 c 0.938937,0.501015 1.036831,0.492182 0.819589,-0.07396 z m -9.695456,-0.0086 c 0,-0.05183 -0.16753,-0.158565 -0.372296,-0.237145 -0.213478,-0.08192 -0.309771,-0.04168 -0.225731,0.09429 0.140882,0.227942 0.598027,0.337152 0.598027,0.142863 z m 23.968836,-0.557546 c 0.05498,-0.03733 -0.133937,-0.06788 -0.419808,-0.06788 -0.319511,0 -0.519756,0.149943 -0.519756,0.389201 0,0.333159 0.06046,0.342934 0.419802,0.06789 0.230896,-0.176732 0.46479,-0.351874 0.519762,-0.389207 z m 2.898649,0.411895 c 0,-0.307034 -1.923787,-0.307034 -2.398883,0 -0.255407,0.165059 0.04042,0.233609 1.019528,0.236214 0.762096,0.0018 1.379355,-0.103677 1.379355,-0.236214 z M 37.763505,26.065687 c 0,-0.81437 -0.285567,-1.067681 -0.961702,-0.853085 -0.585969,0.185982 -0.601708,0.44864 -0.06448,1.076072 0.596312,0.696447 1.026186,0.603036 1.026186,-0.222987 z m 4.898088,0.559897 c 0.208699,-0.08008 0.379451,-0.295983 0.379451,-0.479778 0,-0.352118 -0.859465,-0.449564 -1.567803,-0.177754 -0.353893,0.135801 -0.332766,0.197904 0.160299,0.471279 0.688128,0.381523 0.573365,0.360732 1.028053,0.186253 z m 2.640854,-0.06918 c 0.369034,-0.144566 0.390784,-0.2085 0.107851,-0.31707 -0.194912,-0.07479 -0.618816,0.01041 -0.942013,0.189439 -0.519436,0.287665 -0.531955,0.324459 -0.107862,0.317069 0.263878,-0.0048 0.687789,-0.08985 0.942018,-0.189438 z m 8.054483,0.03486 c 0.0012,-0.329051 -1.26968,-3.178586 -1.416034,-3.174852 -0.434461,0.01112 -0.727714,0.465967 -0.775624,1.203093 -0.09163,1.409678 0.396045,1.956122 1.891112,2.119007 0.164921,0.01794 0.300164,-0.04827 0.300546,-0.147248 z m 16.068152,-1.079499 c 0.0018,-0.230891 -0.151877,-0.419804 -0.341998,-0.419804 -0.494304,0 -0.590022,0.273746 -0.333509,0.953777 0.182641,0.484189 0.265419,0.528518 0.447939,0.239887 0.123143,-0.194731 0.22555,-0.54297 0.227568,-0.77386 z m 2.796059,0.485271 c 0.213671,-0.345726 -0.392898,-0.657268 -1.287937,-0.661513 -0.723013,-0.0035 -0.757675,0.03323 -0.521401,0.551807 0.20076,0.440635 0.398699,0.534107 0.957347,0.452114 0.387334,-0.05686 0.77073,-0.210934 0.851991,-0.342408 z m -39.375348,0.05449 c 0.187638,-0.303602 -0.129927,-0.303602 -0.599719,0 -0.310104,0.200404 -0.303771,0.233047 0.0458,0.236214 0.223103,0.0018 0.47236,-0.104275 0.553905,-0.236214 z m 6.119343,-0.117306 c -0.299626,-0.361029 -0.721859,-0.284135 -0.721859,0.131461 0,0.124152 0.22912,0.225732 0.50915,0.225732 0.423705,0 0.459406,-0.05994 0.212709,-0.357193 z m 11.425901,-0.003 c 0.07605,-0.198205 0.06758,-0.642121 -0.01885,-0.98648 -0.151725,-0.604528 -0.173288,-0.611501 -0.625589,-0.202174 -0.466216,0.421924 -0.613333,1.084289 -0.308521,1.3891 0.282178,0.282179 0.810405,0.171071 0.952972,-0.200446 z m 17.72481,0.13096 c -0.07798,-0.126175 -0.300256,-0.168599 -0.493935,-0.09429 -0.49588,0.190285 -0.437445,0.323691 0.141787,0.323691 0.271661,0 0.430128,-0.103234 0.352148,-0.22941 z M 22.40241,25.264325 c 0.32664,-0.589262 0.327563,-0.689934 0.0082,-0.894211 -0.522494,-0.334252 -0.574549,-0.311776 -1.182502,0.510526 -0.448218,0.606244 -0.490879,0.7881 -0.22503,0.959249 0.523127,0.33679 1.002961,0.13942 1.399291,-0.575564 z m 44.650426,0.375801 c 0.383185,-0.226354 0.696702,-0.486643 0.696702,-0.578417 0,-0.09176 -0.647896,-0.203429 -1.439767,-0.248132 -1.430522,-0.08077 -1.439759,-0.07705 -1.43933,0.578409 5.43e-4,0.577504 0.09296,0.659696 0.743065,0.659696 0.408438,0 1.05614,-0.185203 1.43933,-0.411556 z m 7.053744,0.169 c -0.608286,-0.258006 -1.383021,-0.293936 -1.235658,-0.05734 0.06163,0.09895 0.472807,0.198114 0.913737,0.220359 0.636352,0.03208 0.702745,-0.0018 0.321921,-0.163053 z M 34.110258,25.376834 c 0.05842,-0.1753 -0.05123,-0.228914 -0.284867,-0.139263 -0.208935,0.08018 -0.379879,0.251173 -0.379879,0.379989 0,0.315306 0.545217,0.117868 0.664746,-0.240726 z m 5.333353,-0.163815 C 39.134226,24.88369 38.818547,24.677082 38.7421,24.75389 c -0.07644,0.07681 0.115857,0.346257 0.427337,0.598777 0.795998,0.645329 0.941837,0.571045 0.274174,-0.139648 z m 24.947492,-0.03094 c 0,-0.577328 -0.06235,-0.617234 -0.74965,-0.479779 -0.412306,0.08246 -0.898085,0.149931 -1.0795,0.149931 -0.412135,0 -0.435982,0.636858 -0.02996,0.800679 0.16492,0.06654 0.650693,0.129523 1.079498,0.139938 0.686393,0.01668 0.779636,-0.05637 0.779636,-0.610769 z m -31.665257,0.01848 c 0,-0.283406 -0.453563,-0.282862 -0.562363,6.03e-4 -0.08862,0.230957 -0.0171,0.301827 0.214754,0.212844 0.191184,-0.07337 0.347609,-0.169452 0.347609,-0.213513 z m 14.63319,0.265551 c 0,-0.05819 -0.107952,-0.172503 -0.239893,-0.254047 -0.131938,-0.08154 -0.239886,-0.03395 -0.239886,0.105792 0,0.139721 0.107951,0.254042 0.239886,0.254042 0.13194,0 0.239893,-0.04761 0.239893,-0.105781 z M 27.071674,24.585176 c -0.242008,-0.391576 -0.582917,-0.218203 -0.582917,0.296443 0,0.423705 0.05994,0.459399 0.357185,0.212704 0.19646,-0.163042 0.298039,-0.392156 0.225732,-0.509147 z m 13.65724,0.387013 c 0.100842,-0.262796 -0.02954,-0.359832 -0.483489,-0.359832 -0.525297,0 -0.57531,0.0557 -0.322929,0.359832 0.164249,0.197909 0.381818,0.359833 0.483488,0.359833 0.101662,0 0.246986,-0.161924 0.32293,-0.359833 z m 4.531097,0.200961 c -0.164922,-0.06654 -0.4348,-0.06654 -0.59972,0 -0.164921,0.06655 -0.02996,0.120998 0.299862,0.120998 0.329842,0 0.464784,-0.05444 0.299858,-0.120998 z m 2.938632,-0.08101 c 0.08155,-0.131939 0.03395,-0.239892 -0.105781,-0.239892 -0.139727,0 -0.254048,0.107951 -0.254048,0.239892 0,0.13194 0.04761,0.239887 0.105791,0.239887 0.05819,0 0.172504,-0.107951 0.254044,-0.239887 z m 26.368355,0.03129 c 0.07086,-0.114714 -0.115343,-0.932611 -0.413848,-1.817561 l -0.542757,-1.608986 -0.531545,1.282445 c -0.729314,1.759615 -0.694877,2.062118 0.248092,2.179139 0.428803,0.05323 0.854226,0.114031 0.945395,0.135148 0.09117,0.02108 0.223768,-0.05545 0.294663,-0.170183 z M 42.141461,24.933166 c -0.16492,-0.06654 -0.434792,-0.06654 -0.599719,0 -0.164919,0.06655 -0.02996,0.120993 0.299863,0.120993 0.329848,0 0.464784,-0.05443 0.299856,-0.120993 z m 17.548174,-0.17608 c -0.115776,-0.301705 -1.29785,-0.698338 -1.496865,-0.502248 -0.09009,0.08877 1.180377,0.812407 1.453009,0.827595 0.09481,0.0054 0.114551,-0.141123 0.04386,-0.325347 z m 0.782241,-0.444688 c -0.06654,-0.164921 -0.120999,-0.02996 -0.120999,0.299862 0,0.329848 0.05444,0.464785 0.120999,0.299864 0.06654,-0.164928 0.06654,-0.4348 0,-0.599726 z M 25.604713,24.004404 c 0.222348,-0.466264 0.404265,-0.993423 0.404265,-1.171467 0,-0.335211 -0.899034,-0.685281 -1.231779,-0.479627 -0.363096,0.224407 -0.511566,1.772689 -0.205371,2.141638 0.433464,0.522284 0.583992,0.450791 1.032885,-0.490544 z m 3.043034,0.607856 c 0,-0.131938 -0.114322,-0.239885 -0.254042,-0.239885 -0.139728,0 -0.187331,0.107951 -0.105792,0.239885 0.08155,0.13194 0.195866,0.239887 0.254048,0.239887 0.05819,0 0.105781,-0.107951 0.105781,-0.239887 z m 5.517432,-0.138451 0.599717,-0.361339 -0.599717,0.156911 c -0.32985,0.0863 -0.702272,0.252732 -0.827614,0.369844 -0.366419,0.342353 0.159235,0.237288 0.827614,-0.165416 z m 2.638774,0.138451 c 0.290968,-0.188042 0.256543,-0.233245 -0.179917,-0.236212 -0.296866,-0.0018 -0.539748,0.104275 -0.539748,0.236212 0,0.300565 0.254573,0.300565 0.719665,0 z m 7.38297,0.08701 c 0.53416,-0.143104 0.529181,-0.158849 -0.226523,-0.716391 -0.424968,-0.313535 -0.786982,-0.570066 -0.804467,-0.570066 -0.01752,0 0.01571,0.323854 0.07382,0.719665 0.113681,0.774555 0.134863,0.787097 0.957161,0.566792 z m 27.585101,-0.133907 c -0.05256,-0.157725 -0.375934,-0.361754 -0.718571,-0.453389 -0.491634,-0.131486 -0.647987,-0.07102 -0.74155,0.286783 -0.09953,0.380633 0.01577,0.453389 0.718579,0.453389 0.542733,0 0.803518,-0.100854 0.741542,-0.286783 z m -40.070696,-0.09804 c -0.07972,-0.0797 -0.286619,-0.08824 -0.459787,-0.01891 -0.191365,0.07657 -0.134525,0.13342 0.144935,0.144929 0.252876,0.01041 0.39456,-0.04629 0.314852,-0.125994 z M 61.74866,24.072507 c -0.003,-0.436459 -0.04816,-0.470892 -0.236219,-0.179915 -0.300558,0.465085 -0.300558,0.719665 0,0.719665 0.131939,0 0.238237,-0.24289 0.236219,-0.53975 z m 7.166579,0.325788 c 0.433753,-0.274826 -0.072,-1.735382 -0.855955,-2.471861 l -0.549633,-0.516355 v 0.732184 c 0,0.791871 0.615126,2.472303 0.902796,2.466321 0.09719,-0.0018 0.323443,-0.09665 0.502792,-0.210289 z m -26.16006,-0.283799 c -0.04725,-0.141835 -0.188513,-0.257886 -0.313854,-0.257886 -0.125343,0 -0.266574,0.116051 -0.313855,0.257886 -0.04724,0.141828 0.09395,0.257879 0.313855,0.257879 0.219899,0 0.36113,-0.116051 0.313854,-0.257879 z m 4.603857,-0.36463 c 0,-0.42077 -0.165978,-0.543822 -0.839611,-0.622467 -0.784886,-0.09163 -0.839607,-0.05377 -0.839607,0.58099 0,0.626858 0.06449,0.674667 0.839607,0.622467 0.686278,-0.04622 0.839611,-0.152318 0.839611,-0.58099 z m 20.150615,0.522451 c 0,-0.05504 -0.212064,-0.594784 -0.471254,-1.199443 -0.367603,-0.857593 -0.594469,-1.099383 -1.031514,-1.099383 -0.308153,0 -0.689814,0.129541 -0.848137,0.287863 -0.379269,0.379264 -0.370551,1.797787 0.01203,1.952148 0.367311,0.148208 2.338911,0.197793 2.338911,0.05885 z m 8.255727,-2.118909 c 0.144176,-0.80013 0.107629,-0.899582 -0.330576,-0.899582 -0.428811,0 -0.45472,0.06078 -0.199871,0.468868 0.370014,0.592474 0.06869,0.919367 -0.512793,0.556248 -0.426237,-0.266186 -0.42817,-0.23249 -0.05396,0.937621 l 0.388137,1.213728 0.273493,-0.688648 c 0.150422,-0.378761 0.346435,-1.093466 0.435596,-1.588235 z M 27.80814,23.892595 c -0.08155,-0.131939 -0.310188,-0.239886 -0.508091,-0.239886 -0.197907,0 -0.293118,0.107951 -0.211573,0.239886 0.08153,0.131939 0.310181,0.239887 0.508089,0.239887 0.197909,0 0.293115,-0.107951 0.211575,-0.239887 z m 2.158991,0 c -0.08153,-0.131939 -0.249836,-0.239886 -0.373988,-0.239886 -0.124152,0 -0.225731,0.107951 -0.225731,0.239886 0,0.131939 0.168298,0.239887 0.373989,0.239887 0.205696,0 0.307276,-0.107951 0.22573,-0.239887 z m 10.610062,0.09496 c -0.07971,-0.07971 -0.286619,-0.08824 -0.459786,-0.0189 -0.191365,0.07657 -0.134525,0.133418 0.144935,0.144934 0.252877,0.01041 0.394566,-0.04629 0.314851,-0.125994 z m 4.622847,-0.454791 c 0,-0.518452 -0.105648,-0.598553 -0.779636,-0.591092 l -0.779636,0.0086 0.71966,0.589901 c 0.395817,0.324448 0.746654,0.59044 0.779642,0.591093 0.03299,6.04e-4 0.06,-0.268682 0.06,-0.59853 z m 19.191063,-0.356715 v -0.956436 l -1.079498,0.524465 c -0.685591,0.33308 -1.079499,0.682085 -1.079499,0.956434 0,0.352045 0.199746,0.431972 1.079499,0.431972 h 1.079498 z m 5.469527,0.0591 c -0.347787,-0.419048 -0.443977,-0.280251 -0.269136,0.388338 0.104164,0.398288 0.196804,0.463647 0.336597,0.237457 0.106323,-0.172043 0.07605,-0.452869 -0.06747,-0.625795 z m -31.857239,0.457533 c 0,-0.31235 -0.285169,-0.520084 -0.517147,-0.376712 -0.248097,0.153331 -0.03419,0.57662 0.291417,0.57662 0.124152,0 0.22573,-0.08996 0.22573,-0.199908 z m 3.842769,-0.165415 c 0.253512,-0.305458 0.238673,-0.340567 -0.09058,-0.214223 -0.216566,0.0831 -0.393763,0.2475 -0.393763,0.365325 0,0.308485 0.138862,0.265166 0.484335,-0.151102 z m 6.952201,-0.637759 c 0,-0.62603 -0.05328,-0.690646 -0.359827,-0.436247 -0.368466,0.305801 -0.480806,0.998508 -0.206433,1.272881 0.2944,0.294401 0.56626,-0.107276 0.56626,-0.836634 z m 11.253688,0.668631 c 0.226141,-0.272481 0.06906,-0.405495 -0.847763,-0.717889 -0.853175,-0.290709 -1.20522,-0.317147 -1.455631,-0.109324 -0.477743,0.396494 -0.258876,0.779297 0.54509,0.953366 1.147449,0.248441 1.46641,0.225561 1.758304,-0.126153 z M 72.561857,22.77914 c 0.262507,-0.6124 0.428678,-1.162052 0.369277,-1.221454 -0.196683,-0.196688 -1.391927,1.822394 -1.231997,2.081167 0.256005,0.41422 0.361868,0.308725 0.86272,-0.859713 z m -40.233894,0.513725 c -0.04412,-0.277834 -1.71806,-0.722734 -1.928299,-0.512495 -0.07759,0.07759 6.1e-5,0.311113 0.172545,0.518948 0.341194,0.411114 1.821132,0.405677 1.755754,-0.0065 z m 4.550503,-0.224631 c 0.415507,-0.315028 0.411876,-0.350245 -0.08368,-0.811923 -0.515921,-0.480655 -1.62541,-0.88722 -1.838804,-0.673826 -0.06168,0.06168 0.07131,0.498725 0.295525,0.971224 0.431071,0.90842 0.908343,1.059355 1.626957,0.514525 z m 2.38434,0.185692 c -0.164927,-0.06655 -0.299863,-0.27392 -0.299863,-0.460838 0,-0.248961 0.336791,-0.342113 1.259415,-0.348341 1.213092,-0.0081 1.237356,-0.02108 0.659696,-0.351332 -0.837467,-0.478741 -1.214882,-0.441071 -2.017779,0.201376 -0.762682,0.610275 -0.680997,1.129838 0.1728,1.099073 0.289072,-0.01041 0.390652,-0.07338 0.225731,-0.139938 z M 49.757919,22.81308 c 0,-0.329848 -0.107951,-0.599719 -0.239893,-0.599719 -0.131939,0 -0.239886,0.269871 -0.239886,0.599719 0,0.329848 0.107951,0.599718 0.239886,0.599718 0.13194,0 0.239893,-0.26987 0.239893,-0.599718 z m 21.908652,-0.655672 c 0.513045,-0.697082 0.564062,-0.85987 0.230184,-0.734529 -0.571703,0.214621 -1.011661,0.80503 -1.021038,1.370209 -0.0042,0.252881 0.02375,0.414812 0.06204,0.359832 0.0383,-0.05498 0.366285,-0.502955 0.728812,-0.995512 z m -37.030115,0.475755 c -0.0048,-0.164921 -0.139612,-0.52934 -0.299862,-0.809814 l -0.291356,-0.509958 -1.300542,0.497734 c -1.283364,0.491168 -1.291284,0.500219 -0.599724,0.685622 0.418999,0.112333 0.732975,0.09312 0.780783,-0.04774 0.127505,-0.375729 0.75965,-0.27238 0.75965,0.124194 0,0.199907 0.213229,0.359832 0.479774,0.359832 0.263877,0 0.475953,-0.134936 0.471277,-0.299863 z m 13.022437,-0.273961 c 0.59326,-0.45035 0.533314,-0.550927 -0.436834,-0.732933 -0.471158,-0.08838 -1.010907,-0.219902 -1.199445,-0.292251 -0.241331,-0.0926 -0.342796,0.04767 -0.342796,0.473852 0,0.87416 1.136666,1.190812 1.979075,0.551332 z m 9.408123,0.106168 c 0.160456,-0.259613 -0.6255,-0.407727 -3.318651,-0.625404 -1.523484,-0.123137 -1.86608,-0.09032 -1.77917,0.17042 0.07549,0.226491 0.580651,0.324324 1.691602,0.327618 0.871187,0.0024 1.662815,0.08355 1.759186,0.179915 0.254206,0.254212 1.481653,0.21505 1.647033,-0.05256 z m 4.451363,-0.387566 c 0.357249,-0.939633 0.314509,-0.997324 -0.870436,-1.175023 -0.947667,-0.142108 -1.185825,-0.0891 -1.678274,0.373523 -0.64806,0.608823 -0.608215,0.703811 0.460971,1.098723 1.265854,0.467563 1.827359,0.387624 2.087739,-0.297223 z M 45.156002,21.807845 c -0.06463,-0.549585 -0.245234,-0.688399 -1.216416,-0.934968 -0.62728,-0.159255 -1.181162,-0.219658 -1.23085,-0.134229 -0.04966,0.08543 -0.03697,0.506163 0.02828,0.934962 0.115414,0.758689 0.150535,0.779636 1.30675,0.779636 1.14867,0 1.185628,-0.02145 1.112246,-0.645401 z m 25.326586,0.26595 c 0.270894,-0.705939 0.148028,-0.820011 -0.873917,-0.81136 l -1.019522,0.0086 0.719666,0.589901 c 0.84662,0.693965 0.979876,0.718131 1.173773,0.212832 z m 6.240698,-0.220269 c 0.320423,-0.489028 0.330679,-0.599719 0.05549,-0.599719 -0.185567,0 -0.388977,0.269872 -0.452041,0.599719 -0.06303,0.329848 -0.08803,0.59972 -0.05558,0.59972 0.03256,0 0.235922,-0.269872 0.452041,-0.59972 z m -25.526042,0.119947 c 0,-0.131939 -0.114316,-0.239893 -0.254042,-0.239893 -0.139727,0 -0.18733,0.107951 -0.105781,0.239893 0.08154,0.131938 0.195861,0.239887 0.254043,0.239887 0.05819,0 0.105781,-0.107951 0.10578,-0.239887 z m 11.754528,0 c 0,-0.131939 -0.101584,-0.239893 -0.225731,-0.239893 -0.124152,0 -0.292443,0.107951 -0.373988,0.239893 -0.08155,0.131938 0.02005,0.239887 0.22573,0.239887 0.205696,0 0.373989,-0.107951 0.373989,-0.239887 z"
     id="path1251" />
</svg>
